Lab1/lab1part3/simulation/qsim/lab1part3.msim.vcd
$comment
	File created using the following command:
		vcd file lab1part3.msim.vcd -direction
$end
$date
	Thu Jan 24 16:51:18 2019
$end
$version
	ModelSim Version 10.5b
$end
$timescale
	1ps
$end

$scope module cntr_30b_vlg_vec_tst $end
$var reg 1 ! E $end
$var reg 1 " R $end
$var reg 1 # clk $end
$var wire 1 $ cntr [29] $end
$var wire 1 % cntr [28] $end
$var wire 1 & cntr [27] $end
$var wire 1 ' cntr [26] $end
$var wire 1 ( cntr [25] $end
$var wire 1 ) cntr [24] $end
$var wire 1 * cntr [23] $end
$var wire 1 + cntr [22] $end
$var wire 1 , cntr [21] $end
$var wire 1 - cntr [20] $end
$var wire 1 . cntr [19] $end
$var wire 1 / cntr [18] $end
$var wire 1 0 cntr [17] $end
$var wire 1 1 cntr [16] $end
$var wire 1 2 cntr [15] $end
$var wire 1 3 cntr [14] $end
$var wire 1 4 cntr [13] $end
$var wire 1 5 cntr [12] $end
$var wire 1 6 cntr [11] $end
$var wire 1 7 cntr [10] $end
$var wire 1 8 cntr [9] $end
$var wire 1 9 cntr [8] $end
$var wire 1 : cntr [7] $end
$var wire 1 ; cntr [6] $end
$var wire 1 < cntr [5] $end
$var wire 1 = cntr [4] $end
$var wire 1 > cntr [3] $end
$var wire 1 ? cntr [2] $end
$var wire 1 @ cntr [1] $end
$var wire 1 A cntr [0] $end
$var wire 1 B out [3] $end
$var wire 1 C out [2] $end
$var wire 1 D out [1] $end
$var wire 1 E out [0] $end

$scope module i1 $end
$var wire 1 F gnd $end
$var wire 1 G vcc $end
$var wire 1 H unknown $end
$var tri1 1 I devclrn $end
$var tri1 1 J devpor $end
$var tri1 1 K devoe $end
$var wire 1 L ~QUARTUS_CREATED_GND~I_combout $end
$var wire 1 M clk~input_o $end
$var wire 1 N clk~inputCLKENA0_outclk $end
$var wire 1 O Add0~17_sumout $end
$var wire 1 P R~input_o $end
$var wire 1 Q E~input_o $end
$var wire 1 R cntr[26]~0_combout $end
$var wire 1 S cntr[0]~reg0_q $end
$var wire 1 T Add0~18 $end
$var wire 1 U Add0~21_sumout $end
$var wire 1 V cntr[1]~reg0_q $end
$var wire 1 W Add0~22 $end
$var wire 1 X Add0~25_sumout $end
$var wire 1 Y cntr[2]~reg0_q $end
$var wire 1 Z Add0~26 $end
$var wire 1 [ Add0~29_sumout $end
$var wire 1 \ cntr[3]~reg0_q $end
$var wire 1 ] Add0~30 $end
$var wire 1 ^ Add0~33_sumout $end
$var wire 1 _ cntr[4]~reg0_q $end
$var wire 1 ` Add0~34 $end
$var wire 1 a Add0~37_sumout $end
$var wire 1 b cntr[5]~reg0_q $end
$var wire 1 c Add0~38 $end
$var wire 1 d Add0~41_sumout $end
$var wire 1 e cntr[6]~reg0_q $end
$var wire 1 f Add0~42 $end
$var wire 1 g Add0~45_sumout $end
$var wire 1 h cntr[7]~reg0_q $end
$var wire 1 i Add0~46 $end
$var wire 1 j Add0~49_sumout $end
$var wire 1 k cntr[8]~reg0_q $end
$var wire 1 l Add0~50 $end
$var wire 1 m Add0~53_sumout $end
$var wire 1 n cntr[9]~reg0_q $end
$var wire 1 o Add0~54 $end
$var wire 1 p Add0~57_sumout $end
$var wire 1 q cntr[10]~reg0_q $end
$var wire 1 r Add0~58 $end
$var wire 1 s Add0~61_sumout $end
$var wire 1 t cntr[11]~reg0_q $end
$var wire 1 u Add0~62 $end
$var wire 1 v Add0~65_sumout $end
$var wire 1 w cntr[12]~reg0_q $end
$var wire 1 x Add0~66 $end
$var wire 1 y Add0~69_sumout $end
$var wire 1 z cntr[13]~reg0_q $end
$var wire 1 { Add0~70 $end
$var wire 1 | Add0~73_sumout $end
$var wire 1 } cntr[14]~reg0_q $end
$var wire 1 ~ Add0~74 $end
$var wire 1 !! Add0~77_sumout $end
$var wire 1 "! cntr[15]~reg0_q $end
$var wire 1 #! Add0~78 $end
$var wire 1 $! Add0~81_sumout $end
$var wire 1 %! cntr[16]~reg0_q $end
$var wire 1 &! Add0~82 $end
$var wire 1 '! Add0~85_sumout $end
$var wire 1 (! cntr[17]~reg0_q $end
$var wire 1 )! Add0~86 $end
$var wire 1 *! Add0~89_sumout $end
$var wire 1 +! cntr[18]~reg0_q $end
$var wire 1 ,! Add0~90 $end
$var wire 1 -! Add0~93_sumout $end
$var wire 1 .! cntr[19]~reg0_q $end
$var wire 1 /! Add0~94 $end
$var wire 1 0! Add0~97_sumout $end
$var wire 1 1! cntr[20]~reg0_q $end
$var wire 1 2! Add0~98 $end
$var wire 1 3! Add0~101_sumout $end
$var wire 1 4! cntr[21]~reg0_q $end
$var wire 1 5! Add0~102 $end
$var wire 1 6! Add0~105_sumout $end
$var wire 1 7! cntr[22]~reg0_q $end
$var wire 1 8! Add0~106 $end
$var wire 1 9! Add0~109_sumout $end
$var wire 1 :! cntr[23]~reg0_q $end
$var wire 1 ;! Add0~110 $end
$var wire 1 <! Add0~113_sumout $end
$var wire 1 =! cntr[24]~reg0_q $end
$var wire 1 >! Add0~114 $end
$var wire 1 ?! Add0~117_sumout $end
$var wire 1 @! cntr[25]~reg0_q $end
$var wire 1 A! Add0~118 $end
$var wire 1 B! Add0~1_sumout $end
$var wire 1 C! cntr[26]~reg0_q $end
$var wire 1 D! Add0~2 $end
$var wire 1 E! Add0~5_sumout $end
$var wire 1 F! cntr[27]~reg0_q $end
$var wire 1 G! Add0~6 $end
$var wire 1 H! Add0~9_sumout $end
$var wire 1 I! cntr[28]~reg0_q $end
$var wire 1 J! Add0~10 $end
$var wire 1 K! Add0~13_sumout $end
$var wire 1 L! cntr[29]~reg0_q $end
$upscope $end
$upscope $end
$enddefinitions $end
#0
$dumpvars
0!
0"
0#
0A
0@
0?
0>
0=
0<
0;
0:
09
08
07
06
05
04
03
02
01
00
0/
0.
0-
0,
0+
0*
0)
0(
0'
0&
0%
0$
0E
0D
0C
0B
0F
1G
xH
1I
1J
1K
0L
0M
0N
1O
0P
0Q
0R
0S
0T
0U
0V
0W
0X
0Y
0Z
0[
0\
0]
0^
0_
0`
0a
0b
0c
0d
0e
0f
0g
0h
0i
0j
0k
0l
0m
0n
0o
0p
0q
0r
0s
0t
0u
0v
0w
0x
0y
0z
0{
0|
0}
0~
0!!
0"!
0#!
0$!
0%!
0&!
0'!
0(!
0)!
0*!
0+!
0,!
0-!
0.!
0/!
00!
01!
02!
03!
04!
05!
06!
07!
08!
09!
0:!
0;!
0<!
0=!
0>!
0?!
0@!
0A!
0B!
0C!
0D!
0E!
0F!
0G!
0H!
0I!
0J!
0K!
0L!
$end
#5000
1#
1M
1N
#10000
0#
0M
0N
#15000
1#
1M
1N
#20000
0#
0M
0N
#25000
1#
1M
1N
#30000
0#
0M
0N
#35000
1#
1M
1N
#40000
0#
0M
0N
#45000
1#
1M
1N
#50000
0#
0M
0N
#55000
1#
1M
1N
#60000
0#
0M
0N
#65000
1#
1M
1N
#70000
0#
0M
0N
#75000
1#
1M
1N
#80000
0#
0M
0N
#85000
1#
1M
1N
#90000
0#
0M
0N
#95000
1#
1M
1N
#100000
0#
0M
0N
#105000
1#
1M
1N
#110000
0#
0M
0N
#115000
1#
1M
1N
#120000
0#
0M
0N
#125000
1#
1M
1N
#130000
0#
0M
0N
#135000
1#
1M
1N
#140000
0#
0M
0N
#145000
1#
1M
1N
#150000
1!
0#
1Q
0M
0N
1R
#155000
1#
1M
1N
1S
1A
1T
0O
1U
#160000
0#
0M
0N
#165000
1#
1M
1N
1V
0S
0A
1@
0T
1W
1O
0U
0W
1U
1X
0X
#170000
0#
0M
0N
#175000
1#
1M
1N
1S
1A
1T
0O
1W
0U
1X
#180000
0#
0M
0N
#185000
1#
1M
1N
1Y
0V
0S
0A
0@
1?
0T
0W
1Z
1O
1U
0X
0Z
0U
1X
1[
0[
#190000
0#
0M
0N
#195000
1#
1M
1N
1S
1A
1T
0O
1U
#200000
1"
0#
1P
0M
0N
#205000
1#
1M
1N
0Y
0S
0A
0?
0T
1O
0X
0U
#210000
0#
0M
0N
#215000
1#
1M
1N
#220000
0#
0M
0N
#225000
1#
1M
1N
#230000
0#
0M
0N
#235000
1#
1M
1N
#240000
0#
0M
0N
#245000
1#
1M
1N
#250000
0#
0M
0N
#255000
1#
1M
1N
#260000
0#
0M
0N
#265000
1#
1M
1N
#270000
0#
0M
0N
#275000
1#
1M
1N
#280000
0#
0M
0N
#285000
1#
1M
1N
#290000
0#
0M
0N
#295000
1#
1M
1N
#300000
0#
0M
0N
#305000
1#
1M
1N
#310000
0#
0M
0N
#315000
1#
1M
1N
#320000
0"
0#
0P
0M
0N
#325000
1#
1M
1N
1S
1A
1T
0O
1U
#330000
0#
0M
0N
#335000
1#
1M
1N
1V
0S
0A
1@
0T
1W
1O
0U
0W
1U
1X
0X
#340000
0#
0M
0N
#345000
1#
1M
1N
1S
1A
1T
0O
1W
0U
1X
#350000
0#
0M
0N
#355000
1#
1M
1N
1Y
0V
0S
0A
0@
1?
0T
0W
1Z
1O
1U
0X
0Z
0U
1X
1[
0[
#360000
0#
0M
0N
#365000
1#
1M
1N
1S
1A
1T
0O
1U
#370000
0#
0M
0N
#375000
1#
1M
1N
1V
0S
0A
1@
0T
1W
1O
0U
0W
1Z
1U
0X
0Z
1X
1[
0[
#380000
0#
0M
0N
#385000
1#
1M
1N
1S
1A
1T
0O
1W
0U
1Z
0X
1[
#390000
0#
0M
0N
#395000
1#
1M
1N
1\
0Y
0V
0S
0A
0@
0?
1>
0T
0W
0Z
1]
1O
1U
1X
0[
0]
0U
0X
1[
1^
0^
#400000
0#
0M
0N
#405000
1#
1M
1N
1S
1A
1T
0O
1U
#410000
0#
0M
0N
#415000
1#
1M
1N
1V
0S
0A
1@
0T
1W
1O
0U
0W
1U
1X
0X
#420000
0#
0M
0N
#425000
1#
1M
1N
1S
1A
1T
0O
1W
0U
1X
#430000
0#
0M
0N
#435000
1#
1M
1N
1Y
0V
0S
0A
0@
1?
0T
0W
1Z
1O
1U
0X
0Z
1]
0U
1X
0[
0]
1[
1^
0^
#440000
0#
0M
0N
#445000
1#
1M
1N
1S
1A
1T
0O
1U
#450000
0#
0M
0N
#455000
1#
1M
1N
1V
0S
0A
1@
0T
1W
1O
0U
0W
1Z
1U
0X
0Z
1]
1X
0[
0]
1[
1^
0^
#460000
0#
0M
0N
#465000
1#
1M
1N
1S
1A
1T
0O
1W
0U
1Z
0X
1]
0[
1^
#470000
0#
0M
0N
#475000
1#
1M
1N
1_
0\
0Y
0V
0S
0A
0@
0?
0>
1=
0T
0W
0Z
0]
1`
1O
1U
1X
1[
0^
0`
0U
0X
0[
1^
1a
0a
#480000
0#
0M
0N
#485000
1#
1M
1N
1S
1A
1T
0O
1U
#490000
0#
0M
0N
#495000
1#
1M
1N
1V
0S
0A
1@
0T
1W
1O
0U
0W
1U
1X
0X
#500000
0#
0M
0N
#505000
1#
1M
1N
1S
1A
1T
0O
1W
0U
1X
#510000
0#
0M
0N
#515000
1#
1M
1N
1Y
0V
0S
0A
0@
1?
0T
0W
1Z
1O
1U
0X
0Z
0U
1X
1[
0[
#520000
0#
0M
0N
#525000
1#
1M
1N
1S
1A
1T
0O
1U
#530000
0#
0M
0N
#535000
1#
1M
1N
1V
0S
0A
1@
0T
1W
1O
0U
0W
1Z
1U
0X
0Z
1X
1[
0[
#540000
0#
0M
0N
#545000
1#
1M
1N
1S
1A
1T
0O
1W
0U
1Z
0X
1[
#550000
0#
0M
0N
#555000
1#
1M
1N
1\
0Y
0V
0S
0A
0@
0?
1>
0T
0W
0Z
1]
1O
1U
1X
0[
0]
1`
0U
0X
1[
0^
0`
1^
1a
0a
#560000
0#
0M
0N
#565000
1#
1M
1N
1S
1A
1T
0O
1U
#570000
0#
0M
0N
#575000
1#
1M
1N
1V
0S
0A
1@
0T
1W
1O
0U
0W
1U
1X
0X
#580000
0#
0M
0N
#585000
1#
1M
1N
1S
1A
1T
0O
1W
0U
1X
#590000
1"
0#
1P
0M
0N
#595000
1#
1M
1N
0_
0\
0V
0S
0A
0@
0>
0=
0T
0W
1O
1U
0[
0^
0U
0X
#600000
0#
0M
0N
#605000
1#
1M
1N
#610000
0#
0M
0N
#615000
1#
1M
1N
#620000
0#
0M
0N
#625000
1#
1M
1N
#630000
0"
0#
0P
0M
0N
#635000
1#
1M
1N
1S
1A
1T
0O
1U
#640000
0#
0M
0N
#645000
1#
1M
1N
1V
0S
0A
1@
0T
1W
1O
0U
0W
1U
1X
0X
#650000
0#
0M
0N
#655000
1#
1M
1N
1S
1A
1T
0O
1W
0U
1X
#660000
0#
0M
0N
#665000
1#
1M
1N
1Y
0V
0S
0A
0@
1?
0T
0W
1Z
1O
1U
0X
0Z
0U
1X
1[
0[
#670000
0#
0M
0N
#675000
1#
1M
1N
1S
1A
1T
0O
1U
#680000
0#
0M
0N
#685000
1#
1M
1N
1V
0S
0A
1@
0T
1W
1O
0U
0W
1Z
1U
0X
0Z
1X
1[
0[
#690000
0#
0M
0N
#695000
1#
1M
1N
1S
1A
1T
0O
1W
0U
1Z
0X
1[
#700000
0#
0M
0N
#705000
1#
1M
1N
1\
0Y
0V
0S
0A
0@
0?
1>
0T
0W
0Z
1]
1O
1U
1X
0[
0]
0U
0X
1[
1^
0^
#710000
0#
0M
0N
#715000
1#
1M
1N
1S
1A
1T
0O
1U
#720000
0#
0M
0N
#725000
1#
1M
1N
1V
0S
0A
1@
0T
1W
1O
0U
0W
1U
1X
0X
#730000
0#
0M
0N
#735000
1#
1M
1N
1S
1A
1T
0O
1W
0U
1X
#740000
0#
0M
0N
#745000
1#
1M
1N
1Y
0V
0S
0A
0@
1?
0T
0W
1Z
1O
1U
0X
0Z
1]
0U
1X
0[
0]
1[
1^
0^
#750000
0#
0M
0N
#755000
1#
1M
1N
1S
1A
1T
0O
1U
#760000
0#
0M
0N
#765000
1#
1M
1N
1V
0S
0A
1@
0T
1W
1O
0U
0W
1Z
1U
0X
0Z
1]
1X
0[
0]
1[
1^
0^
#770000
0#
0M
0N
#775000
1#
1M
1N
1S
1A
1T
0O
1W
0U
1Z
0X
1]
0[
1^
#780000
0#
0M
0N
#785000
1#
1M
1N
1_
0\
0Y
0V
0S
0A
0@
0?
0>
1=
0T
0W
0Z
0]
1`
1O
1U
1X
1[
0^
0`
0U
0X
0[
1^
1a
0a
#790000
0#
0M
0N
#795000
1#
1M
1N
1S
1A
1T
0O
1U
#800000
1"
0#
1P
0M
0N
#805000
1#
1M
1N
0_
0S
0A
0=
0T
1O
0^
0U
#810000
0#
0M
0N
#815000
1#
1M
1N
#820000
0#
0M
0N
#825000
1#
1M
1N
#830000
0#
0M
0N
#835000
1#
1M
1N
#840000
0#
0M
0N
#845000
1#
1M
1N
#850000
0#
0M
0N
#855000
1#
1M
1N
#860000
0#
0M
0N
#865000
1#
1M
1N
#870000
0"
0#
0P
0M
0N
#875000
1#
1M
1N
1S
1A
1T
0O
1U
#880000
0#
0M
0N
#885000
1#
1M
1N
1V
0S
0A
1@
0T
1W
1O
0U
0W
1U
1X
0X
#890000
0#
0M
0N
#895000
1#
1M
1N
1S
1A
1T
0O
1W
0U
1X
#900000
0#
0M
0N
#905000
1#
1M
1N
1Y
0V
0S
0A
0@
1?
0T
0W
1Z
1O
1U
0X
0Z
0U
1X
1[
0[
#910000
0#
0M
0N
#915000
1#
1M
1N
1S
1A
1T
0O
1U
#920000
0#
0M
0N
#925000
1#
1M
1N
1V
0S
0A
1@
0T
1W
1O
0U
0W
1Z
1U
0X
0Z
1X
1[
0[
#930000
0#
0M
0N
#935000
1#
1M
1N
1S
1A
1T
0O
1W
0U
1Z
0X
1[
#940000
0#
0M
0N
#945000
1#
1M
1N
1\
0Y
0V
0S
0A
0@
0?
1>
0T
0W
0Z
1]
1O
1U
1X
0[
0]
0U
0X
1[
1^
0^
#950000
0#
0M
0N
#955000
1#
1M
1N
1S
1A
1T
0O
1U
#960000
0#
0M
0N
#965000
1#
1M
1N
1V
0S
0A
1@
0T
1W
1O
0U
0W
1U
1X
0X
#970000
0#
0M
0N
#975000
1#
1M
1N
1S
1A
1T
0O
1W
0U
1X
#980000
0#
0M
0N
#985000
1#
1M
1N
1Y
0V
0S
0A
0@
1?
0T
0W
1Z
1O
1U
0X
0Z
1]
0U
1X
0[
0]
1[
1^
0^
#990000
0#
0M
0N
#995000
1#
1M
1N
1S
1A
1T
0O
1U
