Lab2_hank/tutorial/simulation/qsim/tutorial.msim.vcd
$comment
	File created using the following command:
		vcd file tutorial.msim.vcd -direction
$end
$date
	Thu Jan 31 03:50:20 2019
$end
$version
	ModelSim Version 10.5b
$end
$timescale
	1ps
$end

$scope module lab2tut_vlg_vec_tst $end
$var reg 1 ! CLOCK_50 $end
$var reg 3 " KEY [2:0] $end
$var wire 1 # HEX0 [6] $end
$var wire 1 $ HEX0 [5] $end
$var wire 1 % HEX0 [4] $end
$var wire 1 & HEX0 [3] $end
$var wire 1 ' HEX0 [2] $end
$var wire 1 ( HEX0 [1] $end
$var wire 1 ) HEX0 [0] $end
$var wire 1 * HEX1 [6] $end
$var wire 1 + HEX1 [5] $end
$var wire 1 , HEX1 [4] $end
$var wire 1 - HEX1 [3] $end
$var wire 1 . HEX1 [2] $end
$var wire 1 / HEX1 [1] $end
$var wire 1 0 HEX1 [0] $end
$var wire 1 1 HEX2 [6] $end
$var wire 1 2 HEX2 [5] $end
$var wire 1 3 HEX2 [4] $end
$var wire 1 4 HEX2 [3] $end
$var wire 1 5 HEX2 [2] $end
$var wire 1 6 HEX2 [1] $end
$var wire 1 7 HEX2 [0] $end
$var wire 1 8 HEX3 [6] $end
$var wire 1 9 HEX3 [5] $end
$var wire 1 : HEX3 [4] $end
$var wire 1 ; HEX3 [3] $end
$var wire 1 < HEX3 [2] $end
$var wire 1 = HEX3 [1] $end
$var wire 1 > HEX3 [0] $end
$var wire 1 ? HEX4 [6] $end
$var wire 1 @ HEX4 [5] $end
$var wire 1 A HEX4 [4] $end
$var wire 1 B HEX4 [3] $end
$var wire 1 C HEX4 [2] $end
$var wire 1 D HEX4 [1] $end
$var wire 1 E HEX4 [0] $end
$var wire 1 F HEX5 [6] $end
$var wire 1 G HEX5 [5] $end
$var wire 1 H HEX5 [4] $end
$var wire 1 I HEX5 [3] $end
$var wire 1 J HEX5 [2] $end
$var wire 1 K HEX5 [1] $end
$var wire 1 L HEX5 [0] $end
$var wire 1 M disp_num [19] $end
$var wire 1 N disp_num [18] $end
$var wire 1 O disp_num [17] $end
$var wire 1 P disp_num [16] $end
$var wire 1 Q disp_num [15] $end
$var wire 1 R disp_num [14] $end
$var wire 1 S disp_num [13] $end
$var wire 1 T disp_num [12] $end
$var wire 1 U disp_num [11] $end
$var wire 1 V disp_num [10] $end
$var wire 1 W disp_num [9] $end
$var wire 1 X disp_num [8] $end
$var wire 1 Y disp_num [7] $end
$var wire 1 Z disp_num [6] $end
$var wire 1 [ disp_num [5] $end
$var wire 1 \ disp_num [4] $end
$var wire 1 ] disp_num [3] $end
$var wire 1 ^ disp_num [2] $end
$var wire 1 _ disp_num [1] $end
$var wire 1 ` disp_num [0] $end

$scope module i1 $end
$var wire 1 a gnd $end
$var wire 1 b vcc $end
$var wire 1 c unknown $end
$var tri1 1 d devclrn $end
$var tri1 1 e devpor $end
$var tri1 1 f devoe $end
$var wire 1 g ~QUARTUS_CREATED_GND~I_combout $end
$var wire 1 h CLOCK_50~input_o $end
$var wire 1 i CLOCK_50~inputCLKENA0_outclk $end
$var wire 1 j comb_23|Add1~5_sumout $end
$var wire 1 k comb_23|Add1~54 $end
$var wire 1 l comb_23|Add1~25_sumout $end
$var wire 1 m comb_23|Add1~26 $end
$var wire 1 n comb_23|Add1~33_sumout $end
$var wire 1 o comb_23|Add1~34 $end
$var wire 1 p comb_23|Add1~29_sumout $end
$var wire 1 q comb_23|Add1~30 $end
$var wire 1 r comb_23|Add1~61_sumout $end
$var wire 1 s comb_23|Add1~62 $end
$var wire 1 t comb_23|Add1~65_sumout $end
$var wire 1 u comb_23|Add1~66 $end
$var wire 1 v comb_23|Add1~69_sumout $end
$var wire 1 w comb_23|Add1~70 $end
$var wire 1 x comb_23|Add1~73_sumout $end
$var wire 1 y comb_23|Add1~74 $end
$var wire 1 z comb_23|Add1~81_sumout $end
$var wire 1 { comb_23|Add1~82 $end
$var wire 1 | comb_23|Add1~77_sumout $end
$var wire 1 } comb_23|LessThan1~3_combout $end
$var wire 1 ~ KEY[0]~input_o $end
$var wire 1 !! comb_23|Add1~78 $end
$var wire 1 "! comb_23|Add1~37_sumout $end
$var wire 1 #! comb_23|Add1~38 $end
$var wire 1 $! comb_23|Add1~41_sumout $end
$var wire 1 %! comb_23|Add1~42 $end
$var wire 1 &! comb_23|Add1~45_sumout $end
$var wire 1 '! comb_23|Add1~46 $end
$var wire 1 (! comb_23|Add1~49_sumout $end
$var wire 1 )! comb_23|Add1~50 $end
$var wire 1 *! comb_23|Add1~57_sumout $end
$var wire 1 +! comb_23|Add1~58 $end
$var wire 1 ,! comb_23|Add1~17_sumout $end
$var wire 1 -! comb_23|LessThan1~1_combout $end
$var wire 1 .! comb_23|Add1~18 $end
$var wire 1 /! comb_23|Add1~1_sumout $end
$var wire 1 0! comb_23|LessThan1~0_combout $end
$var wire 1 1! comb_23|always0~0_combout $end
$var wire 1 2! comb_23|Add1~6 $end
$var wire 1 3! comb_23|Add1~9_sumout $end
$var wire 1 4! comb_23|Add1~10 $end
$var wire 1 5! comb_23|Add1~13_sumout $end
$var wire 1 6! comb_23|Add1~14 $end
$var wire 1 7! comb_23|Add1~21_sumout $end
$var wire 1 8! comb_23|Add1~22 $end
$var wire 1 9! comb_23|Add1~53_sumout $end
$var wire 1 :! comb_23|LessThan1~2_combout $end
$var wire 1 ;! comb_23|LessThan1~combout $end
$var wire 1 <! comb_24|Add0~1_sumout $end
$var wire 1 =! KEY[1]~input_o $end
$var wire 1 >! KEY[2]~input_o $end
$var wire 1 ?! comb_24|resume~0_combout $end
$var wire 1 @! comb_24|resume~q $end
$var wire 1 A! comb_24|Q[0]~0_combout $end
$var wire 1 B! comb_24|Add0~2 $end
$var wire 1 C! comb_24|Add0~5_sumout $end
$var wire 1 D! comb_24|Add0~6 $end
$var wire 1 E! comb_24|Add0~9_sumout $end
$var wire 1 F! comb_24|Add0~10 $end
$var wire 1 G! comb_24|Add0~13_sumout $end
$var wire 1 H! comb_24|Add0~14 $end
$var wire 1 I! comb_24|Add0~17_sumout $end
$var wire 1 J! comb_24|Add0~18 $end
$var wire 1 K! comb_24|Add0~21_sumout $end
$var wire 1 L! comb_24|Add0~22 $end
$var wire 1 M! comb_24|Add0~25_sumout $end
$var wire 1 N! comb_24|Add0~26 $end
$var wire 1 O! comb_24|Add0~29_sumout $end
$var wire 1 P! comb_24|Add0~30 $end
$var wire 1 Q! comb_24|Add0~33_sumout $end
$var wire 1 R! comb_24|Add0~34 $end
$var wire 1 S! comb_24|Add0~37_sumout $end
$var wire 1 T! comb_24|Add0~38 $end
$var wire 1 U! comb_24|Add0~41_sumout $end
$var wire 1 V! comb_24|Add0~42 $end
$var wire 1 W! comb_24|Add0~45_sumout $end
$var wire 1 X! comb_24|Add0~46 $end
$var wire 1 Y! comb_24|Add0~49_sumout $end
$var wire 1 Z! comb_24|Add0~50 $end
$var wire 1 [! comb_24|Add0~53_sumout $end
$var wire 1 \! comb_24|Add0~54 $end
$var wire 1 ]! comb_24|Add0~57_sumout $end
$var wire 1 ^! comb_24|Add0~58 $end
$var wire 1 _! comb_24|Add0~61_sumout $end
$var wire 1 `! comb_24|Add0~62 $end
$var wire 1 a! comb_24|Add0~65_sumout $end
$var wire 1 b! comb_24|Add0~66 $end
$var wire 1 c! comb_24|Add0~69_sumout $end
$var wire 1 d! comb_24|Add0~70 $end
$var wire 1 e! comb_24|Add0~73_sumout $end
$var wire 1 f! comb_24|Add0~74 $end
$var wire 1 g! comb_24|Add0~77_sumout $end
$var wire 1 h! comb_25|WideOr6~0_combout $end
$var wire 1 i! comb_25|WideOr5~0_combout $end
$var wire 1 j! comb_25|WideOr4~0_combout $end
$var wire 1 k! comb_25|WideOr3~0_combout $end
$var wire 1 l! comb_25|WideOr2~0_combout $end
$var wire 1 m! comb_25|WideOr1~0_combout $end
$var wire 1 n! comb_25|WideOr0~0_combout $end
$var wire 1 o! comb_26|WideOr6~0_combout $end
$var wire 1 p! comb_26|WideOr5~0_combout $end
$var wire 1 q! comb_26|WideOr4~0_combout $end
$var wire 1 r! comb_26|WideOr3~0_combout $end
$var wire 1 s! comb_26|WideOr2~0_combout $end
$var wire 1 t! comb_26|WideOr1~0_combout $end
$var wire 1 u! comb_26|WideOr0~0_combout $end
$var wire 1 v! comb_27|WideOr6~0_combout $end
$var wire 1 w! comb_27|WideOr5~0_combout $end
$var wire 1 x! comb_27|WideOr4~0_combout $end
$var wire 1 y! comb_27|WideOr3~0_combout $end
$var wire 1 z! comb_27|WideOr2~0_combout $end
$var wire 1 {! comb_27|WideOr1~0_combout $end
$var wire 1 |! comb_27|WideOr0~0_combout $end
$var wire 1 }! comb_28|WideOr6~0_combout $end
$var wire 1 ~! comb_28|WideOr5~0_combout $end
$var wire 1 !" comb_28|WideOr4~0_combout $end
$var wire 1 "" comb_28|WideOr3~0_combout $end
$var wire 1 #" comb_28|WideOr2~0_combout $end
$var wire 1 $" comb_28|WideOr1~0_combout $end
$var wire 1 %" comb_28|WideOr0~0_combout $end
$var wire 1 &" comb_29|WideOr6~0_combout $end
$var wire 1 '" comb_29|WideOr5~0_combout $end
$var wire 1 (" comb_29|WideOr4~0_combout $end
$var wire 1 )" comb_29|WideOr3~0_combout $end
$var wire 1 *" comb_29|WideOr2~0_combout $end
$var wire 1 +" comb_29|WideOr1~0_combout $end
$var wire 1 ," comb_29|WideOr0~0_combout $end
$var wire 1 -" comb_24|Q [19] $end
$var wire 1 ." comb_24|Q [18] $end
$var wire 1 /" comb_24|Q [17] $end
$var wire 1 0" comb_24|Q [16] $end
$var wire 1 1" comb_24|Q [15] $end
$var wire 1 2" comb_24|Q [14] $end
$var wire 1 3" comb_24|Q [13] $end
$var wire 1 4" comb_24|Q [12] $end
$var wire 1 5" comb_24|Q [11] $end
$var wire 1 6" comb_24|Q [10] $end
$var wire 1 7" comb_24|Q [9] $end
$var wire 1 8" comb_24|Q [8] $end
$var wire 1 9" comb_24|Q [7] $end
$var wire 1 :" comb_24|Q [6] $end
$var wire 1 ;" comb_24|Q [5] $end
$var wire 1 <" comb_24|Q [4] $end
$var wire 1 =" comb_24|Q [3] $end
$var wire 1 >" comb_24|Q [2] $end
$var wire 1 ?" comb_24|Q [1] $end
$var wire 1 @" comb_24|Q [0] $end
$var wire 1 A" comb_23|cntr [20] $end
$var wire 1 B" comb_23|cntr [19] $end
$var wire 1 C" comb_23|cntr [18] $end
$var wire 1 D" comb_23|cntr [17] $end
$var wire 1 E" comb_23|cntr [16] $end
$var wire 1 F" comb_23|cntr [15] $end
$var wire 1 G" comb_23|cntr [14] $end
$var wire 1 H" comb_23|cntr [13] $end
$var wire 1 I" comb_23|cntr [12] $end
$var wire 1 J" comb_23|cntr [11] $end
$var wire 1 K" comb_23|cntr [10] $end
$var wire 1 L" comb_23|cntr [9] $end
$var wire 1 M" comb_23|cntr [8] $end
$var wire 1 N" comb_23|cntr [7] $end
$var wire 1 O" comb_23|cntr [6] $end
$var wire 1 P" comb_23|cntr [5] $end
$var wire 1 Q" comb_23|cntr [4] $end
$var wire 1 R" comb_23|cntr [3] $end
$var wire 1 S" comb_23|cntr [2] $end
$var wire 1 T" comb_23|cntr [1] $end
$var wire 1 U" comb_23|cntr [0] $end
$upscope $end
$upscope $end
$enddefinitions $end
#0
$dumpvars
0!
b111 "
0)
0(
0'
0&
0%
0$
1#
00
0/
0.
0-
0,
0+
1*
07
06
05
04
03
02
11
0>
0=
0<
0;
0:
09
18
0E
0D
0C
0B
0A
0@
1?
0L
0K
0J
0I
0H
0G
0F
0`
0_
0^
0]
0\
0[
0Z
0Y
0X
0W
0V
0U
0T
0S
0R
0Q
0P
0O
0N
0M
0a
1b
xc
1d
1e
1f
0g
0h
0i
1j
0k
0l
0m
0n
0o
0p
0q
0r
0s
0t
0u
0v
0w
0x
0y
0z
0{
0|
1}
1~
0!!
0"!
0#!
0$!
0%!
0&!
0'!
0(!
0)!
0*!
0+!
0,!
1-!
0.!
0/!
10!
01!
02!
03!
04!
05!
06!
07!
08!
09!
1:!
0;!
1<!
1=!
1>!
x?!
x@!
xA!
0B!
0C!
0D!
0E!
0F!
0G!
0H!
0I!
0J!
0K!
0L!
0M!
0N!
0O!
0P!
0Q!
0R!
0S!
0T!
0U!
0V!
0W!
0X!
0Y!
0Z!
0[!
0\!
0]!
0^!
0_!
0`!
0a!
0b!
0c!
0d!
0e!
0f!
0g!
0h!
0i!
0j!
0k!
0l!
0m!
0n!
0o!
0p!
0q!
0r!
0s!
0t!
0u!
0v!
0w!
0x!
0y!
0z!
0{!
0|!
0}!
0~!
0!"
0""
0#"
0$"
0%"
0&"
0'"
0("
0)"
0*"
0+"
0,"
0@"
0?"
0>"
0="
0<"
0;"
0:"
09"
08"
07"
06"
05"
04"
03"
02"
01"
00"
0/"
0."
0-"
0U"
0T"
0S"
0R"
0Q"
0P"
0O"
0N"
0M"
0L"
0K"
0J"
0I"
0H"
0G"
0F"
0E"
0D"
0C"
0B"
0A"
$end
#5000
1!
1h
1i
1U"
12!
0j
13!
#10000
b101 "
0!
0=!
0h
0i
1A!
1?!
#15000
1!
1h
1i
1T"
0U"
02!
14!
1j
03!
04!
13!
15!
05!
#20000
0!
0h
0i
#25000
1!
1h
1i
1U"
00!
12!
0j
14!
11!
03!
1;!
15!
1@!
1@"
1`
1B!
1m!
1l!
1k!
1h!
0<!
1)
1&
1%
1$
1C!
#30000
0!
0h
0i
#35000
1!
1h
1i
0T"
0U"
10!
02!
04!
1j
13!
01!
03!
05!
0;!
#40000
0!
0h
0i
#45000
1!
1h
1i
1U"
12!
0j
13!
#50000
0!
0h
0i
#55000
1!
1h
1i
1T"
0U"
02!
14!
1j
03!
04!
13!
15!
05!
#60000
0!
0h
0i
#65000
1!
1h
1i
1U"
00!
12!
0j
14!
11!
03!
1;!
15!
1?"
0@"
0`
1_
1n!
0B!
1D!
0l!
0k!
1j!
0h!
1<!
0C!
0)
1'
0&
0%
0#
0D!
1C!
1E!
0E!
#70000
0!
0h
0i
#75000
1!
1h
1i
0T"
0U"
10!
02!
04!
1j
13!
01!
03!
05!
0;!
#80000
b111 "
0!
1=!
0h
0i
#85000
1!
1h
1i
1U"
12!
0j
13!
#90000
0!
0h
0i
#95000
1!
1h
1i
1T"
0U"
02!
14!
1j
03!
04!
13!
15!
05!
#100000
0!
0h
0i
#105000
1!
1h
1i
1U"
00!
12!
0j
14!
11!
03!
1;!
15!
1@"
1`
1B!
1l!
0j!
0<!
0'
1%
1D!
0C!
1E!
#110000
0!
0h
0i
#115000
1!
1h
1i
0T"
0U"
10!
02!
04!
1j
13!
01!
03!
05!
0;!
#120000
0!
0h
0i
#125000
1!
1h
1i
1U"
12!
0j
13!
#130000
0!
0h
0i
#135000
1!
1h
1i
1T"
0U"
02!
14!
1j
03!
04!
13!
15!
05!
#140000
0!
0h
0i
#145000
1!
1h
1i
1U"
00!
12!
0j
14!
11!
03!
1;!
15!
1>"
0?"
0@"
0`
0_
1^
0B!
0D!
1F!
0m!
1k!
1h!
1<!
1C!
0E!
1)
1&
0$
0F!
0C!
1E!
1G!
0G!
#150000
0!
0h
0i
#155000
1!
1h
1i
0T"
0U"
10!
02!
04!
1j
13!
01!
03!
05!
0;!
#160000
0!
0h
0i
#165000
1!
1h
1i
1U"
12!
0j
13!
#170000
0!
0h
0i
#175000
1!
1h
1i
1T"
0U"
02!
14!
1j
03!
04!
13!
15!
05!
#180000
0!
0h
0i
#185000
1!
1h
1i
1U"
00!
12!
0j
14!
11!
03!
1;!
15!
1@"
1`
1B!
0k!
1i!
0h!
0<!
0)
1(
0&
1C!
#190000
0!
0h
0i
#195000
1!
1h
1i
0T"
0U"
10!
02!
04!
1j
13!
01!
03!
05!
0;!
#200000
0!
0h
0i
#205000
1!
1h
1i
1U"
12!
0j
13!
#210000
0!
0h
0i
#215000
1!
1h
1i
1T"
0U"
02!
14!
1j
03!
04!
13!
15!
05!
#220000
0!
0h
0i
#225000
1!
1h
1i
1U"
00!
12!
0j
14!
11!
03!
1;!
15!
1?"
0@"
0`
1_
0B!
1D!
0l!
1<!
0C!
0%
0D!
1F!
1C!
0E!
0F!
1E!
1G!
0G!
#230000
0!
0h
0i
#235000
1!
1h
1i
0T"
0U"
10!
02!
04!
1j
13!
01!
03!
05!
0;!
#240000
0!
0h
0i
#245000
1!
1h
1i
1U"
12!
0j
13!
#250000
0!
0h
0i
#255000
1!
1h
1i
1T"
0U"
02!
14!
1j
03!
04!
13!
15!
05!
#260000
0!
0h
0i
#265000
1!
1h
1i
1U"
00!
12!
0j
14!
11!
03!
1;!
15!
1@"
1`
0n!
1B!
1m!
1l!
1k!
0i!
0<!
0(
1&
1%
1$
1#
1D!
0C!
1F!
0E!
1G!
#270000
0!
0h
0i
#275000
1!
1h
1i
0T"
0U"
10!
02!
04!
1j
13!
01!
03!
05!
0;!
#280000
0!
0h
0i
#285000
1!
1h
1i
1U"
12!
0j
13!
#290000
0!
0h
0i
#295000
1!
1h
1i
1T"
0U"
02!
14!
1j
03!
04!
13!
15!
05!
#300000
0!
0h
0i
#305000
1!
1h
1i
1U"
00!
12!
0j
14!
11!
03!
1;!
15!
1="
0>"
0?"
0@"
0`
0_
0^
1]
1n!
0B!
0D!
0F!
1H!
0m!
0l!
0k!
1<!
1C!
1E!
0G!
0&
0%
0$
0#
0H!
0C!
0E!
1G!
1I!
0I!
#310000
0!
0h
0i
#315000
1!
1h
1i
0T"
0U"
10!
02!
04!
1j
13!
01!
03!
05!
0;!
#320000
0!
0h
0i
#325000
1!
1h
1i
1U"
12!
0j
13!
#330000
0!
0h
0i
#335000
1!
1h
1i
1T"
0U"
02!
14!
1j
03!
04!
13!
15!
05!
#340000
0!
0h
0i
#345000
1!
1h
1i
1U"
00!
12!
0j
14!
11!
03!
1;!
15!
1@"
1`
1B!
1l!
0<!
1%
1C!
#350000
0!
0h
0i
#355000
1!
1h
1i
0T"
0U"
10!
02!
04!
1j
13!
01!
03!
05!
0;!
#360000
0!
0h
0i
#365000
1!
1h
1i
1U"
12!
0j
13!
#370000
0!
0h
0i
#375000
1!
1h
1i
1T"
0U"
02!
14!
1j
03!
04!
13!
15!
05!
#380000
0!
0h
0i
#385000
1!
1h
1i
1U"
00!
12!
0j
14!
11!
03!
1;!
15!
1?"
0@"
0`
1_
0B!
1D!
0l!
1k!
1<!
0C!
1&
0%
0D!
1C!
1E!
0E!
#390000
0!
0h
0i
#395000
1!
1h
1i
0T"
0U"
10!
02!
04!
1j
13!
01!
03!
05!
0;!
#400000
0!
0h
0i
#405000
1!
1h
1i
1U"
12!
0j
13!
#410000
0!
0h
0i
#415000
1!
1h
1i
1T"
0U"
02!
14!
1j
03!
04!
13!
15!
05!
#420000
0!
0h
0i
#425000
1!
1h
1i
1U"
00!
12!
0j
14!
11!
03!
1;!
15!
1@"
1`
1B!
0k!
1i!
1h!
0<!
1)
1(
0&
1D!
0C!
1E!
#430000
0!
0h
0i
#435000
1!
1h
1i
0T"
0U"
10!
02!
04!
1j
13!
01!
03!
05!
0;!
#440000
0!
0h
0i
#445000
1!
1h
1i
1U"
12!
0j
13!
#450000
0!
0h
0i
#455000
1!
1h
1i
1T"
0U"
02!
14!
1j
03!
04!
13!
15!
05!
#460000
0!
0h
0i
#465000
1!
1h
1i
1U"
00!
12!
0j
14!
11!
03!
1;!
15!
1>"
0?"
0@"
0`
0_
1^
0n!
0B!
0D!
1F!
1j!
0h!
1<!
1C!
0E!
0)
1'
1#
0F!
1H!
0C!
1E!
0G!
0H!
1G!
1I!
0I!
#470000
0!
0h
0i
#475000
1!
1h
1i
0T"
0U"
10!
02!
04!
1j
13!
01!
03!
05!
0;!
#480000
0!
0h
0i
#485000
1!
1h
1i
1U"
12!
0j
13!
#490000
0!
0h
0i
#495000
1!
1h
1i
1T"
0U"
02!
14!
1j
03!
04!
13!
15!
05!
#500000
0!
0h
0i
#505000
1!
1h
1i
1U"
00!
12!
0j
14!
11!
03!
1;!
15!
1@"
1`
1n!
1B!
1m!
0j!
0i!
1h!
0<!
1)
0(
0'
1$
0#
1C!
#510000
0!
0h
0i
#515000
1!
1h
1i
0T"
0U"
10!
02!
04!
1j
13!
01!
03!
05!
0;!
#520000
0!
0h
0i
#525000
1!
1h
1i
1U"
12!
0j
13!
#530000
0!
0h
0i
#535000
1!
1h
1i
1T"
0U"
02!
14!
1j
03!
04!
13!
15!
05!
#540000
0!
0h
0i
#545000
1!
1h
1i
1U"
00!
12!
0j
14!
11!
03!
1;!
15!
1?"
0@"
0`
1_
0B!
1D!
0m!
1j!
1i!
0h!
1<!
0C!
0)
1(
1'
0$
0D!
1F!
1C!
0E!
0F!
1H!
1E!
0G!
0H!
1G!
1I!
0I!
#550000
0!
0h
0i
#555000
1!
1h
1i
0T"
0U"
10!
02!
04!
1j
13!
01!
03!
05!
0;!
#560000
0!
0h
0i
#565000
1!
1h
1i
1U"
12!
0j
13!
#570000
0!
0h
0i
#575000
1!
1h
1i
1T"
0U"
02!
14!
1j
03!
04!
13!
15!
05!
#580000
0!
0h
0i
#585000
1!
1h
1i
1U"
00!
12!
0j
14!
11!
03!
1;!
15!
1@"
1`
1B!
1k!
0<!
1&
1D!
0C!
1F!
0E!
1H!
0G!
1I!
#590000
0!
0h
0i
#595000
1!
1h
1i
0T"
0U"
10!
02!
04!
1j
13!
01!
03!
05!
0;!
#600000
0!
0h
0i
#605000
1!
1h
1i
1U"
12!
0j
13!
#610000
0!
0h
0i
#615000
1!
1h
1i
1T"
0U"
02!
14!
1j
03!
04!
13!
15!
05!
#620000
0!
0h
0i
#625000
1!
1h
1i
1U"
00!
12!
0j
14!
11!
03!
1;!
15!
1<"
0="
0>"
0?"
0@"
0`
0_
0^
0]
1\
0n!
0B!
0D!
0F!
0H!
1J!
0k!
0j!
0i!
1<!
1C!
1E!
1G!
1t!
1s!
1r!
1o!
0I!
10
1-
1,
1+
0(
0'
0&
1#
0J!
0C!
0E!
0G!
1I!
1K!
0K!
#630000
0!
0h
0i
#635000
1!
1h
1i
0T"
0U"
10!
02!
04!
1j
13!
01!
03!
05!
0;!
#640000
0!
0h
0i
#645000
1!
1h
1i
1U"
12!
0j
13!
#650000
0!
0h
0i
#655000
1!
1h
1i
1T"
0U"
02!
14!
1j
03!
04!
13!
15!
05!
#660000
0!
0h
0i
#665000
1!
1h
1i
1U"
00!
12!
0j
14!
11!
03!
1;!
15!
1@"
1`
1B!
1m!
1l!
1k!
1h!
0<!
1)
1&
1%
1$
1C!
#670000
0!
0h
0i
#675000
1!
1h
1i
0T"
0U"
10!
02!
04!
1j
13!
01!
03!
05!
0;!
#680000
0!
0h
0i
#685000
1!
1h
1i
1U"
12!
0j
13!
#690000
0!
0h
0i
#695000
1!
1h
1i
1T"
0U"
02!
14!
1j
03!
04!
13!
15!
05!
#700000
0!
0h
0i
#705000
1!
1h
1i
1U"
00!
12!
0j
14!
11!
03!
1;!
15!
1?"
0@"
0`
1_
1n!
0B!
1D!
0l!
0k!
1j!
0h!
1<!
0C!
0)
1'
0&
0%
0#
0D!
1C!
1E!
0E!
#710000
0!
0h
0i
#715000
1!
1h
1i
0T"
0U"
10!
02!
04!
1j
13!
01!
03!
05!
0;!
#720000
0!
0h
0i
#725000
1!
1h
1i
1U"
12!
0j
13!
#730000
0!
0h
0i
#735000
1!
1h
1i
1T"
0U"
02!
14!
1j
03!
04!
13!
15!
05!
#740000
0!
0h
0i
#745000
1!
1h
1i
1U"
00!
12!
0j
14!
11!
03!
1;!
15!
1@"
1`
1B!
1l!
0j!
0<!
0'
1%
1D!
0C!
1E!
#750000
0!
0h
0i
#755000
1!
1h
1i
0T"
0U"
10!
02!
04!
1j
13!
01!
03!
05!
0;!
#760000
0!
0h
0i
#765000
1!
1h
1i
1U"
12!
0j
13!
#770000
0!
0h
0i
#775000
1!
1h
1i
1T"
0U"
02!
14!
1j
03!
04!
13!
15!
05!
#780000
0!
0h
0i
#785000
1!
1h
1i
1U"
00!
12!
0j
14!
11!
03!
1;!
15!
1>"
0?"
0@"
0`
0_
1^
0B!
0D!
1F!
0m!
1k!
1h!
1<!
1C!
0E!
1)
1&
0$
0F!
0C!
1E!
1G!
0G!
#790000
0!
0h
0i
#795000
1!
1h
1i
0T"
0U"
10!
02!
04!
1j
13!
01!
03!
05!
0;!
#800000
0!
0h
0i
#805000
1!
1h
1i
1U"
12!
0j
13!
#810000
0!
0h
0i
#815000
1!
1h
1i
1T"
0U"
02!
14!
1j
03!
04!
13!
15!
05!
#820000
0!
0h
0i
#825000
1!
1h
1i
1U"
00!
12!
0j
14!
11!
03!
1;!
15!
1@"
1`
1B!
0k!
1i!
0h!
0<!
0)
1(
0&
1C!
#830000
0!
0h
0i
#835000
1!
1h
1i
0T"
0U"
10!
02!
04!
1j
13!
01!
03!
05!
0;!
#840000
0!
0h
0i
#845000
1!
1h
1i
1U"
12!
0j
13!
#850000
0!
0h
0i
#855000
1!
1h
1i
1T"
0U"
02!
14!
1j
03!
04!
13!
15!
05!
#860000
0!
0h
0i
#865000
1!
1h
1i
1U"
00!
12!
0j
14!
11!
03!
1;!
15!
1?"
0@"
0`
1_
0B!
1D!
0l!
1<!
0C!
0%
0D!
1F!
1C!
0E!
0F!
1E!
1G!
0G!
#870000
0!
0h
0i
#875000
1!
1h
1i
0T"
0U"
10!
02!
04!
1j
13!
01!
03!
05!
0;!
#880000
0!
0h
0i
#885000
1!
1h
1i
1U"
12!
0j
13!
#890000
0!
0h
0i
#895000
1!
1h
1i
1T"
0U"
02!
14!
1j
03!
04!
13!
15!
05!
#900000
0!
0h
0i
#905000
1!
1h
1i
1U"
00!
12!
0j
14!
11!
03!
1;!
15!
1@"
1`
0n!
1B!
1m!
1l!
1k!
0i!
0<!
0(
1&
1%
1$
1#
1D!
0C!
1F!
0E!
1G!
#910000
0!
0h
0i
#915000
1!
1h
1i
0T"
0U"
10!
02!
04!
1j
13!
01!
03!
05!
0;!
#920000
0!
0h
0i
#925000
1!
1h
1i
1U"
12!
0j
13!
#930000
0!
0h
0i
#935000
1!
1h
1i
1T"
0U"
02!
14!
1j
03!
04!
13!
15!
05!
#940000
0!
0h
0i
#945000
1!
1h
1i
1U"
00!
12!
0j
14!
11!
03!
1;!
15!
1="
0>"
0?"
0@"
0`
0_
0^
1]
1n!
0B!
0D!
0F!
1H!
0m!
0l!
0k!
1<!
1C!
1E!
0G!
0&
0%
0$
0#
0H!
1J!
0C!
0E!
1G!
0I!
0J!
1I!
1K!
0K!
#950000
0!
0h
0i
#955000
1!
1h
1i
0T"
0U"
10!
02!
04!
1j
13!
01!
03!
05!
0;!
#960000
0!
0h
0i
#965000
1!
1h
1i
1U"
12!
0j
13!
#970000
0!
0h
0i
#975000
1!
1h
1i
1T"
0U"
02!
14!
1j
03!
04!
13!
15!
05!
#980000
0!
0h
0i
#985000
1!
1h
1i
1U"
00!
12!
0j
14!
11!
03!
1;!
15!
1@"
1`
1B!
1l!
0<!
1%
1C!
#990000
0!
0h
0i
#995000
1!
1h
1i
0T"
0U"
10!
02!
04!
1j
13!
01!
03!
05!
0;!
