Lab2_hank/tutorial/simulation/qsim/tutorial.msim.vcd
$comment
	File created using the following command:
		vcd file tutorial.msim.vcd -direction
$end
$date
	Thu Jan 31 09:53:59 2019
$end
$version
	ModelSim Version 10.5b
$end
$timescale
	1ps
$end

$scope module clock_divider_vlg_vec_tst $end
$var reg 1 ! Clock $end
$var reg 1 " Reset_n $end
$var reg 21 # divisor [20:0] $end
$var wire 1 $ clk_ms $end

$scope module i1 $end
$var wire 1 % gnd $end
$var wire 1 & vcc $end
$var wire 1 ' unknown $end
$var tri1 1 ( devclrn $end
$var tri1 1 ) devpor $end
$var tri1 1 * devoe $end
$var wire 1 + ~QUARTUS_CREATED_GND~I_combout $end
$var wire 1 , divisor[18]~input_o $end
$var wire 1 - Clock~input_o $end
$var wire 1 . Clock~inputCLKENA0_outclk $end
$var wire 1 / Add1~33_sumout $end
$var wire 1 0 Reset_n~input_o $end
$var wire 1 1 divisor[16]~input_o $end
$var wire 1 2 divisor[15]~input_o $end
$var wire 1 3 divisor[14]~input_o $end
$var wire 1 4 divisor[13]~input_o $end
$var wire 1 5 divisor[12]~input_o $end
$var wire 1 6 divisor[11]~input_o $end
$var wire 1 7 divisor[10]~input_o $end
$var wire 1 8 divisor[9]~input_o $end
$var wire 1 9 divisor[8]~input_o $end
$var wire 1 : divisor[7]~input_o $end
$var wire 1 ; divisor[6]~input_o $end
$var wire 1 < divisor[5]~input_o $end
$var wire 1 = divisor[4]~input_o $end
$var wire 1 > divisor[3]~input_o $end
$var wire 1 ? divisor[2]~input_o $end
$var wire 1 @ divisor[1]~input_o $end
$var wire 1 A divisor[0]~input_o $end
$var wire 1 B Add0~46 $end
$var wire 1 C Add0~42 $end
$var wire 1 D Add0~38 $end
$var wire 1 E Add0~34 $end
$var wire 1 F Add0~30 $end
$var wire 1 G Add0~58 $end
$var wire 1 H Add0~54 $end
$var wire 1 I Add0~50 $end
$var wire 1 J Add0~26 $end
$var wire 1 K Add0~22 $end
$var wire 1 L Add0~18 $end
$var wire 1 M Add0~2 $end
$var wire 1 N Add0~14 $end
$var wire 1 O Add0~10 $end
$var wire 1 P Add0~6 $end
$var wire 1 Q Add0~78 $end
$var wire 1 R Add0~81_sumout $end
$var wire 1 S divisor[17]~input_o $end
$var wire 1 T Add0~82 $end
$var wire 1 U Add0~61_sumout $end
$var wire 1 V divisor[19]~input_o $end
$var wire 1 W Add0~62 $end
$var wire 1 X Add0~74 $end
$var wire 1 Y Add0~69_sumout $end
$var wire 1 Z Add0~73_sumout $end
$var wire 1 [ divisor[20]~input_o $end
$var wire 1 \ Add0~70 $end
$var wire 1 ] Add0~65_sumout $end
$var wire 1 ^ Add1~10 $end
$var wire 1 _ Add1~81_sumout $end
$var wire 1 ` LessThan0~14_combout $end
$var wire 1 a LessThan0~18_combout $end
$var wire 1 b LessThan0~19_combout $end
$var wire 1 c Add0~77_sumout $end
$var wire 1 d LessThan0~15_combout $end
$var wire 1 e LessThan0~17_combout $end
$var wire 1 f Add0~17_sumout $end
$var wire 1 g Add0~1_sumout $end
$var wire 1 h Add0~5_sumout $end
$var wire 1 i Add0~9_sumout $end
$var wire 1 j Add0~13_sumout $end
$var wire 1 k LessThan0~0_combout $end
$var wire 1 l LessThan0~1_combout $end
$var wire 1 m LessThan0~2_combout $end
$var wire 1 n LessThan0~16_combout $end
$var wire 1 o Add0~25_sumout $end
$var wire 1 p LessThan0~12_combout $end
$var wire 1 q Add0~21_sumout $end
$var wire 1 r Add0~57_sumout $end
$var wire 1 s Add0~53_sumout $end
$var wire 1 t Add0~49_sumout $end
$var wire 1 u LessThan0~9_combout $end
$var wire 1 v Add0~29_sumout $end
$var wire 1 w Add0~37_sumout $end
$var wire 1 x Add0~33_sumout $end
$var wire 1 y LessThan0~8_combout $end
$var wire 1 z LessThan0~5_combout $end
$var wire 1 { LessThan0~6_combout $end
$var wire 1 | LessThan0~10_combout $end
$var wire 1 } Add0~45_sumout $end
$var wire 1 ~ Add0~41_sumout $end
$var wire 1 !! LessThan0~7_combout $end
$var wire 1 "! LessThan0~11_combout $end
$var wire 1 #! LessThan0~4_combout $end
$var wire 1 $! LessThan0~20_combout $end
$var wire 1 %! LessThan0~3_combout $end
$var wire 1 &! LessThan0~13_combout $end
$var wire 1 '! always0~0_combout $end
$var wire 1 (! Add1~34 $end
$var wire 1 )! Add1~29_sumout $end
$var wire 1 *! Add1~30 $end
$var wire 1 +! Add1~25_sumout $end
$var wire 1 ,! Add1~26 $end
$var wire 1 -! Add1~21_sumout $end
$var wire 1 .! Add1~22 $end
$var wire 1 /! Add1~49_sumout $end
$var wire 1 0! Add1~50 $end
$var wire 1 1! Add1~37_sumout $end
$var wire 1 2! Add1~38 $end
$var wire 1 3! Add1~45_sumout $end
$var wire 1 4! Add1~46 $end
$var wire 1 5! Add1~41_sumout $end
$var wire 1 6! Add1~42 $end
$var wire 1 7! Add1~65_sumout $end
$var wire 1 8! Add1~66 $end
$var wire 1 9! Add1~53_sumout $end
$var wire 1 :! Add1~54 $end
$var wire 1 ;! Add1~61_sumout $end
$var wire 1 <! Add1~62 $end
$var wire 1 =! Add1~57_sumout $end
$var wire 1 >! Add1~58 $end
$var wire 1 ?! Add1~77_sumout $end
$var wire 1 @! Add1~78 $end
$var wire 1 A! Add1~73_sumout $end
$var wire 1 B! Add1~74 $end
$var wire 1 C! Add1~69_sumout $end
$var wire 1 D! Add1~70 $end
$var wire 1 E! Add1~1_sumout $end
$var wire 1 F! Add1~2 $end
$var wire 1 G! Add1~17_sumout $end
$var wire 1 H! Add1~18 $end
$var wire 1 I! Add1~5_sumout $end
$var wire 1 J! Add1~6 $end
$var wire 1 K! Add1~13_sumout $end
$var wire 1 L! Add1~14 $end
$var wire 1 M! Add1~9_sumout $end
$var wire 1 N! LessThan1~0_combout $end
$var wire 1 O! LessThan1~1_combout $end
$var wire 1 P! LessThan1~15_combout $end
$var wire 1 Q! LessThan1~16_combout $end
$var wire 1 R! LessThan1~14_combout $end
$var wire 1 S! LessThan1~8_combout $end
$var wire 1 T! LessThan1~9_combout $end
$var wire 1 U! LessThan1~6_combout $end
$var wire 1 V! LessThan1~4_combout $end
$var wire 1 W! LessThan1~7_combout $end
$var wire 1 X! LessThan1~10_combout $end
$var wire 1 Y! LessThan1~11_combout $end
$var wire 1 Z! LessThan1~2_combout $end
$var wire 1 [! LessThan1~3_combout $end
$var wire 1 \! LessThan1~12_combout $end
$var wire 1 ]! LessThan1~5_combout $end
$var wire 1 ^! LessThan1~13_combout $end
$var wire 1 _! LessThan1~17_combout $end
$var wire 1 `! cntr [20] $end
$var wire 1 a! cntr [19] $end
$var wire 1 b! cntr [18] $end
$var wire 1 c! cntr [17] $end
$var wire 1 d! cntr [16] $end
$var wire 1 e! cntr [15] $end
$var wire 1 f! cntr [14] $end
$var wire 1 g! cntr [13] $end
$var wire 1 h! cntr [12] $end
$var wire 1 i! cntr [11] $end
$var wire 1 j! cntr [10] $end
$var wire 1 k! cntr [9] $end
$var wire 1 l! cntr [8] $end
$var wire 1 m! cntr [7] $end
$var wire 1 n! cntr [6] $end
$var wire 1 o! cntr [5] $end
$var wire 1 p! cntr [4] $end
$var wire 1 q! cntr [3] $end
$var wire 1 r! cntr [2] $end
$var wire 1 s! cntr [1] $end
$var wire 1 t! cntr [0] $end
$upscope $end
$upscope $end
$enddefinitions $end
#0
$dumpvars
1!
1"
b1010 #
0$
0%
1&
x'
1(
1)
1*
0+
0,
1-
1.
1/
10
01
02
03
04
05
06
07
08
09
0:
0;
0<
0=
1>
0?
1@
0A
0B
1C
1D
1E
1F
1G
1H
1I
1J
1K
1L
1M
1N
1O
1P
1Q
0R
0S
1T
0U
0V
1W
1X
0Y
0Z
0[
1\
0]
0^
0_
1`
0a
1b
0c
0d
0e
0f
0g
0h
0i
0j
1k
0l
1m
1n
0o
0p
0q
0r
0s
0t
1u
0v
0w
1x
1y
0z
0{
0|
1}
0~
1!!
1"!
0#!
1$!
1%!
1&!
0'!
0(!
0)!
0*!
0+!
0,!
0-!
0.!
0/!
00!
01!
02!
03!
04!
05!
06!
07!
08!
09!
0:!
0;!
0<!
0=!
0>!
0?!
0@!
0A!
0B!
0C!
0D!
0E!
0F!
0G!
0H!
0I!
0J!
0K!
0L!
0M!
1N!
1O!
1P!
1Q!
0R!
1S!
1T!
0U!
1V!
1W!
0X!
1Y!
0Z!
0[!
1\!
1]!
0^!
0_!
0t!
0s!
0r!
0q!
0p!
0o!
0n!
0m!
0l!
0k!
0j!
0i!
0h!
0g!
0f!
0e!
0d!
0c!
0b!
0a!
0`!
$end
#5000
0!
0-
0.
#10000
1!
1-
1.
1t!
0!!
1(!
0/
1)!
#15000
0!
0-
0.
#20000
1!
1-
1.
1s!
0t!
1Z!
0(!
1*!
1/
0)!
0*!
1)!
1+!
0+!
#25000
0!
0-
0.
#30000
1!
1-
1.
1t!
1(!
0/
1*!
0)!
1+!
#35000
0!
0-
0.
#40000
1!
1-
1.
1r!
0s!
0t!
0Z!
0(!
0*!
1[!
1,!
1/
1)!
0+!
0,!
1^!
0[!
0)!
1+!
1-!
0^!
0-!
1_!
1$
0_!
0$
#45000
0!
0-
0.
#50000
1!
1-
1.
1t!
1(!
0/
1)!
#55000
0!
0-
0.
#60000
1!
1-
1.
1s!
0t!
1Z!
0(!
1*!
1/
0)!
0*!
1,!
1[!
1)!
0+!
0,!
1^!
1+!
1-!
0-!
1_!
1$
#65000
0!
0-
0.
#70000
0"
1!
00
1-
1.
1'!
1t!
1(!
0/
1*!
0)!
1,!
0+!
1-!
#75000
0!
0-
0.
#80000
1!
1-
1.
0r!
0s!
0t!
0Z!
1!!
0(!
0*!
0[!
0,!
1/
1)!
1+!
0^!
0)!
0+!
0-!
0_!
0$
#85000
0!
0-
0.
#90000
1!
1-
1.
#95000
0!
0-
0.
#100000
1!
1-
1.
#105000
0!
0-
0.
#110000
1!
1-
1.
#115000
0!
0-
0.
#120000
1!
1-
1.
#125000
0!
0-
0.
#130000
1!
1-
1.
#135000
0!
0-
0.
#140000
1!
1-
1.
#145000
0!
0-
0.
#150000
1!
1-
1.
#155000
0!
0-
0.
#160000
1!
1-
1.
#165000
0!
0-
0.
#170000
1!
1-
1.
#175000
0!
0-
0.
#180000
1!
1-
1.
#185000
0!
0-
0.
#190000
1!
1-
1.
#195000
0!
0-
0.
#200000
1!
1-
1.
#205000
0!
0-
0.
#210000
1!
1-
1.
#215000
0!
0-
0.
#220000
1!
1-
1.
#225000
0!
0-
0.
#230000
1!
1-
1.
#235000
0!
0-
0.
#240000
1!
1-
1.
#245000
0!
0-
0.
#250000
1!
1-
1.
#255000
0!
0-
0.
#260000
1!
1-
1.
#265000
0!
0-
0.
#270000
1!
1-
1.
#275000
0!
0-
0.
#280000
1!
1-
1.
#285000
0!
0-
0.
#290000
1!
1-
1.
#295000
0!
0-
0.
#300000
1!
1-
1.
#305000
0!
0-
0.
#310000
1!
1-
1.
#315000
0!
0-
0.
#320000
1!
1-
1.
#325000
0!
0-
0.
#330000
1!
1-
1.
#335000
0!
0-
0.
#340000
1"
1!
10
1-
1.
0'!
#345000
0!
0-
0.
#350000
1!
1-
1.
1t!
0!!
1(!
0/
1)!
#355000
0!
0-
0.
#360000
1!
1-
1.
1s!
0t!
1Z!
0(!
1*!
1/
0)!
0*!
1)!
1+!
0+!
#365000
0!
0-
0.
#370000
1!
1-
1.
1t!
1(!
0/
1*!
0)!
1+!
#375000
0!
0-
0.
#380000
1!
1-
1.
1r!
0s!
0t!
0Z!
0(!
0*!
1[!
1,!
1/
1)!
0+!
0,!
1^!
0[!
0)!
1+!
1-!
0^!
0-!
1_!
1$
0_!
0$
#385000
0!
0-
0.
#390000
1!
1-
1.
1t!
1(!
0/
1)!
#395000
0!
0-
0.
#400000
1!
1-
1.
1s!
0t!
1Z!
0(!
1*!
1/
0)!
0*!
1,!
1[!
1)!
0+!
0,!
1^!
1+!
1-!
0-!
1_!
1$
#405000
0!
0-
0.
#410000
1!
1-
1.
1t!
1(!
0/
1*!
0)!
1,!
0+!
1-!
#415000
0!
0-
0.
#420000
1!
1-
1.
1q!
0r!
0s!
0t!
0Z!
1!!
0(!
0*!
0,!
0y
1.!
1{
1/
1)!
1+!
0-!
0.!
0)!
0+!
1-!
1/!
0/!
#425000
0!
0-
0.
#430000
1!
1-
1.
1t!
0!!
1(!
0/
0"!
1)!
0&!
1'!
#435000
0!
0-
0.
#440000
1!
1-
1.
0q!
0t!
1!!
0(!
0[!
0{
1y
1/
0-!
1"!
0^!
0)!
1&!
0_!
0$
0'!
#445000
0!
0-
0.
#450000
1!
1-
1.
1t!
0!!
1(!
0/
1)!
#455000
0!
0-
0.
#460000
1!
1-
1.
1s!
0t!
1Z!
0(!
1*!
1/
0)!
0*!
1)!
1+!
0+!
#465000
0!
0-
0.
#470000
1!
1-
1.
1t!
1(!
0/
1*!
0)!
1+!
#475000
0!
0-
0.
#480000
1!
1-
1.
1r!
0s!
0t!
0Z!
0(!
0*!
1[!
1,!
1/
1)!
0+!
0,!
1^!
0[!
0)!
1+!
1-!
0^!
0-!
1_!
1$
0_!
0$
#485000
0!
0-
0.
#490000
1!
1-
1.
1t!
1(!
0/
1)!
#495000
0!
0-
0.
#500000
1!
1-
1.
1s!
0t!
1Z!
0(!
1*!
1/
0)!
0*!
1,!
1[!
1)!
0+!
0,!
1^!
1+!
1-!
0-!
1_!
1$
#505000
0!
0-
0.
#510000
1!
1-
1.
1t!
1(!
0/
1*!
0)!
1,!
0+!
1-!
#515000
0!
0-
0.
#520000
1!
1-
1.
1q!
0r!
0s!
0t!
0Z!
1!!
0(!
0*!
0,!
0y
1.!
1{
1/
1)!
1+!
0-!
0.!
0)!
0+!
1-!
1/!
0/!
#525000
0!
0-
0.
#530000
1!
1-
1.
1t!
0!!
1(!
0/
0"!
1)!
0&!
1'!
#535000
0!
0-
0.
#540000
1!
1-
1.
0q!
0t!
1!!
0(!
0[!
0{
1y
1/
0-!
1"!
0^!
0)!
1&!
0_!
0$
0'!
#545000
0!
0-
0.
#550000
1!
1-
1.
1t!
0!!
1(!
0/
1)!
#555000
0!
0-
0.
#560000
1!
1-
1.
1s!
0t!
1Z!
0(!
1*!
1/
0)!
0*!
1)!
1+!
0+!
#565000
0!
0-
0.
#570000
1!
1-
1.
1t!
1(!
0/
1*!
0)!
1+!
#575000
0!
0-
0.
#580000
1!
1-
1.
1r!
0s!
0t!
0Z!
0(!
0*!
1[!
1,!
1/
1)!
0+!
0,!
1^!
0[!
0)!
1+!
1-!
0^!
0-!
1_!
1$
0_!
0$
#585000
0!
0-
0.
#590000
1!
1-
1.
1t!
1(!
0/
1)!
#595000
0!
0-
0.
#600000
1!
1-
1.
1s!
0t!
1Z!
0(!
1*!
1/
0)!
0*!
1,!
1[!
1)!
0+!
0,!
1^!
1+!
1-!
0-!
1_!
1$
#605000
0!
0-
0.
#610000
1!
1-
1.
1t!
1(!
0/
1*!
0)!
1,!
0+!
1-!
#615000
0!
0-
0.
#620000
1!
1-
1.
1q!
0r!
0s!
0t!
0Z!
1!!
0(!
0*!
0,!
0y
1.!
1{
1/
1)!
1+!
0-!
0.!
0)!
0+!
1-!
1/!
0/!
#625000
0!
0-
0.
#630000
1!
1-
1.
1t!
0!!
1(!
0/
0"!
1)!
0&!
1'!
#635000
0!
0-
0.
#640000
1!
1-
1.
0q!
0t!
1!!
0(!
0[!
0{
1y
1/
0-!
1"!
0^!
0)!
1&!
0_!
0$
0'!
#645000
0!
0-
0.
#650000
1!
1-
1.
1t!
0!!
1(!
0/
1)!
#655000
0!
0-
0.
#660000
1!
1-
1.
1s!
0t!
1Z!
0(!
1*!
1/
0)!
0*!
1)!
1+!
0+!
#665000
0!
0-
0.
#670000
1!
1-
1.
1t!
1(!
0/
1*!
0)!
1+!
#675000
0!
0-
0.
#680000
1!
1-
1.
1r!
0s!
0t!
0Z!
0(!
0*!
1[!
1,!
1/
1)!
0+!
0,!
1^!
0[!
0)!
1+!
1-!
0^!
0-!
1_!
1$
0_!
0$
#685000
0!
0-
0.
#690000
1!
1-
1.
1t!
1(!
0/
1)!
#695000
0!
0-
0.
#700000
1!
1-
1.
1s!
0t!
1Z!
0(!
1*!
1/
0)!
0*!
1,!
1[!
1)!
0+!
0,!
1^!
1+!
1-!
0-!
1_!
1$
#705000
0!
0-
0.
#710000
1!
1-
1.
1t!
1(!
0/
1*!
0)!
1,!
0+!
1-!
#715000
0!
0-
0.
#720000
1!
1-
1.
1q!
0r!
0s!
0t!
0Z!
1!!
0(!
0*!
0,!
0y
1.!
1{
1/
1)!
1+!
0-!
0.!
0)!
0+!
1-!
1/!
0/!
#725000
0!
0-
0.
#730000
1!
1-
1.
1t!
0!!
1(!
0/
0"!
1)!
0&!
1'!
#735000
0!
0-
0.
#740000
1!
1-
1.
0q!
0t!
1!!
0(!
0[!
0{
1y
1/
0-!
1"!
0^!
0)!
1&!
0_!
0$
0'!
#745000
0!
0-
0.
#750000
1!
1-
1.
1t!
0!!
1(!
0/
1)!
#755000
0!
0-
0.
#760000
1!
1-
1.
1s!
0t!
1Z!
0(!
1*!
1/
0)!
0*!
1)!
1+!
0+!
#765000
0!
0-
0.
#770000
1!
1-
1.
1t!
1(!
0/
1*!
0)!
1+!
#775000
0!
0-
0.
#780000
1!
1-
1.
1r!
0s!
0t!
0Z!
0(!
0*!
1[!
1,!
1/
1)!
0+!
0,!
1^!
0[!
0)!
1+!
1-!
0^!
0-!
1_!
1$
0_!
0$
#785000
0!
0-
0.
#790000
1!
1-
1.
1t!
1(!
0/
1)!
#795000
0!
0-
0.
#800000
1!
1-
1.
1s!
0t!
1Z!
0(!
1*!
1/
0)!
0*!
1,!
1[!
1)!
0+!
0,!
1^!
1+!
1-!
0-!
1_!
1$
#805000
0!
0-
0.
#810000
1!
1-
1.
1t!
1(!
0/
1*!
0)!
1,!
0+!
1-!
#815000
0!
0-
0.
#820000
1!
1-
1.
1q!
0r!
0s!
0t!
0Z!
1!!
0(!
0*!
0,!
0y
1.!
1{
1/
1)!
1+!
0-!
0.!
0)!
0+!
1-!
1/!
0/!
#825000
0!
0-
0.
#830000
1!
1-
1.
1t!
0!!
1(!
0/
0"!
1)!
0&!
1'!
#835000
0!
0-
0.
#840000
1!
1-
1.
0q!
0t!
1!!
0(!
0[!
0{
1y
1/
0-!
1"!
0^!
0)!
1&!
0_!
0$
0'!
#845000
0!
0-
0.
#850000
1!
1-
1.
1t!
0!!
1(!
0/
1)!
#855000
0!
0-
0.
#860000
1!
1-
1.
1s!
0t!
1Z!
0(!
1*!
1/
0)!
0*!
1)!
1+!
0+!
#865000
0!
0-
0.
#870000
1!
1-
1.
1t!
1(!
0/
1*!
0)!
1+!
#875000
0!
0-
0.
#880000
1!
1-
1.
1r!
0s!
0t!
0Z!
0(!
0*!
1[!
1,!
1/
1)!
0+!
0,!
1^!
0[!
0)!
1+!
1-!
0^!
0-!
1_!
1$
0_!
0$
#885000
0!
0-
0.
#890000
1!
1-
1.
1t!
1(!
0/
1)!
#895000
0!
0-
0.
#900000
1!
1-
1.
1s!
0t!
1Z!
0(!
1*!
1/
0)!
0*!
1,!
1[!
1)!
0+!
0,!
1^!
1+!
1-!
0-!
1_!
1$
#905000
0!
0-
0.
#910000
1!
1-
1.
1t!
1(!
0/
1*!
0)!
1,!
0+!
1-!
#915000
0!
0-
0.
#920000
1!
1-
1.
1q!
0r!
0s!
0t!
0Z!
1!!
0(!
0*!
0,!
0y
1.!
1{
1/
1)!
1+!
0-!
0.!
0)!
0+!
1-!
1/!
0/!
#925000
0!
0-
0.
#930000
1!
1-
1.
1t!
0!!
1(!
0/
0"!
1)!
0&!
1'!
#935000
0!
0-
0.
#940000
1!
1-
1.
0q!
0t!
1!!
0(!
0[!
0{
1y
1/
0-!
1"!
0^!
0)!
1&!
0_!
0$
0'!
#945000
0!
0-
0.
#950000
1!
1-
1.
1t!
0!!
1(!
0/
1)!
#955000
0!
0-
0.
#960000
1!
1-
1.
1s!
0t!
1Z!
0(!
1*!
1/
0)!
0*!
1)!
1+!
0+!
#965000
0!
0-
0.
#970000
1!
1-
1.
1t!
1(!
0/
1*!
0)!
1+!
#975000
0!
0-
0.
#980000
1!
1-
1.
1r!
0s!
0t!
0Z!
0(!
0*!
1[!
1,!
1/
1)!
0+!
0,!
1^!
0[!
0)!
1+!
1-!
0^!
0-!
1_!
1$
0_!
0$
#985000
0!
0-
0.
#990000
1!
1-
1.
1t!
1(!
0/
1)!
#995000
0!
0-
0.
