Ass1_hank/simulation/qsim/ass1.msim.vcd
$comment
	File created using the following command:
		vcd file ass1.msim.vcd -direction
$end
$date
	Fri Feb 01 00:46:40 2019
$end
$version
	ModelSim Version 10.5b
$end
$timescale
	1ps
$end

$scope module light_vlg_vec_tst $end
$var reg 1 ! clk $end
$var reg 1 " enable $end
$var wire 1 # A $end
$var wire 1 $ B $end
$var wire 1 % C $end

$scope module i1 $end
$var wire 1 & gnd $end
$var wire 1 ' vcc $end
$var wire 1 ( unknown $end
$var tri1 1 ) devclrn $end
$var tri1 1 * devpor $end
$var tri1 1 + devoe $end
$var wire 1 , ~QUARTUS_CREATED_GND~I_combout $end
$var wire 1 - clk~input_o $end
$var wire 1 . clk~inputCLKENA0_outclk $end
$var wire 1 / enable~input_o $end
$var wire 1 0 A~reg0feeder_combout $end
$var wire 1 1 A~reg0_q $end
$var wire 1 2 light_state.10~0_combout $end
$var wire 1 3 light_state.10~q $end
$var wire 1 4 light_state.11~feeder_combout $end
$var wire 1 5 light_state.11~q $end
$var wire 1 6 light_state.01~0_combout $end
$var wire 1 7 light_state.01~q $end
$var wire 1 8 B~0_combout $end
$var wire 1 9 B~reg0_q $end
$var wire 1 : C~0_combout $end
$var wire 1 ; C~reg0_q $end
$upscope $end
$upscope $end
$enddefinitions $end
#0
$dumpvars
0!
0"
0#
0$
0%
0&
1'
x(
1)
1*
1+
0,
0-
0.
0/
00
01
12
03
04
05
16
07
08
09
0:
0;
$end
#5000
1!
1-
1.
#10000
0!
0-
0.
#15000
1!
1-
1.
#20000
0!
0-
0.
#25000
1!
1-
1.
#30000
0!
0-
0.
#35000
1!
1-
1.
#40000
0!
0-
0.
#45000
1!
1-
1.
#50000
0!
0-
0.
#55000
1!
1-
1.
#60000
0!
0-
0.
#65000
1!
1-
1.
#70000
0!
0-
0.
#75000
1!
1-
1.
#80000
0!
0-
0.
#85000
1!
1-
1.
#90000
1"
0!
1/
0-
0.
10
#95000
1!
1-
1.
17
13
11
1#
14
18
02
#100000
0!
0-
0.
#105000
1!
1-
1.
15
03
19
1$
04
1:
06
#110000
0!
0-
0.
#115000
1!
1-
1.
07
05
1;
1%
0:
16
08
12
#120000
0!
0-
0.
#125000
1!
1-
1.
17
13
0;
09
0$
0%
14
18
02
#130000
0!
0-
0.
#135000
1!
1-
1.
15
03
19
1$
04
1:
06
#140000
0!
0-
0.
#145000
1!
1-
1.
07
05
1;
1%
0:
16
08
12
#150000
0!
0-
0.
#155000
1!
1-
1.
17
13
0;
09
0$
0%
14
18
02
#160000
0!
0-
0.
#165000
1!
1-
1.
15
03
19
1$
04
1:
06
#170000
0!
0-
0.
#175000
1!
1-
1.
07
05
1;
1%
0:
16
08
12
#180000
0!
0-
0.
#185000
1!
1-
1.
17
13
0;
09
0$
0%
14
18
02
#190000
0!
0-
0.
#195000
1!
1-
1.
15
03
19
1$
04
1:
06
#200000
0!
0-
0.
#205000
1!
1-
1.
07
05
1;
1%
0:
16
08
12
#210000
0!
0-
0.
#215000
1!
1-
1.
17
13
0;
09
0$
0%
14
18
02
#220000
0!
0-
0.
#225000
1!
1-
1.
15
03
19
1$
04
1:
06
#230000
0!
0-
0.
#235000
1!
1-
1.
07
05
1;
1%
0:
16
08
12
#240000
0!
0-
0.
#245000
1!
1-
1.
17
13
0;
09
0$
0%
14
18
02
#250000
0!
0-
0.
#255000
1!
1-
1.
15
03
19
1$
04
1:
06
#260000
0!
0-
0.
#265000
1!
1-
1.
07
05
1;
1%
0:
16
08
12
#270000
0!
0-
0.
#275000
1!
1-
1.
17
13
0;
09
0$
0%
14
18
02
#280000
0!
0-
0.
#285000
1!
1-
1.
15
03
19
1$
04
1:
06
#290000
0!
0-
0.
#295000
1!
1-
1.
07
05
1;
1%
0:
16
08
12
#300000
0!
0-
0.
#305000
1!
1-
1.
17
13
0;
09
0$
0%
14
18
02
#310000
0!
0-
0.
#315000
1!
1-
1.
15
03
19
1$
04
1:
06
#320000
0!
0-
0.
#325000
1!
1-
1.
07
05
1;
1%
0:
16
08
12
#330000
0!
0-
0.
#335000
1!
1-
1.
17
13
0;
09
0$
0%
14
18
02
#340000
0!
0-
0.
#345000
1!
1-
1.
15
03
19
1$
04
1:
06
#350000
0!
0-
0.
#355000
1!
1-
1.
07
05
1;
1%
0:
16
08
12
#360000
0!
0-
0.
#365000
1!
1-
1.
17
13
0;
09
0$
0%
14
18
02
#370000
0!
0-
0.
#375000
1!
1-
1.
15
03
19
1$
04
1:
06
#380000
0!
0-
0.
#385000
1!
1-
1.
07
05
1;
1%
0:
16
08
12
#390000
0!
0-
0.
#395000
1!
1-
1.
17
13
0;
09
0$
0%
14
18
02
#400000
0!
0-
0.
#405000
1!
1-
1.
15
03
19
1$
04
1:
06
#410000
0"
0!
0/
0-
0.
0:
08
00
#415000
1!
1-
1.
09
01
0#
0$
#420000
0!
0-
0.
#425000
1!
1-
1.
#430000
0!
0-
0.
#435000
1!
1-
1.
#440000
0!
0-
0.
#445000
1!
1-
1.
#450000
0!
0-
0.
#455000
1!
1-
1.
#460000
0!
0-
0.
#465000
1!
1-
1.
#470000
0!
0-
0.
#475000
1!
1-
1.
#480000
0!
0-
0.
#485000
1!
1-
1.
#490000
0!
0-
0.
#495000
1!
1-
1.
#500000
0!
0-
0.
#505000
1!
1-
1.
#510000
0!
0-
0.
#515000
1!
1-
1.
#520000
0!
0-
0.
#525000
1!
1-
1.
#530000
0!
0-
0.
#535000
1!
1-
1.
#540000
0!
0-
0.
#545000
1!
1-
1.
#550000
0!
0-
0.
#555000
1!
1-
1.
#560000
0!
0-
0.
#565000
1!
1-
1.
#570000
0!
0-
0.
#575000
1!
1-
1.
#580000
0!
0-
0.
#585000
1!
1-
1.
#590000
0!
0-
0.
#595000
1!
1-
1.
#600000
1"
0!
1/
0-
0.
1:
18
10
#605000
1!
1-
1.
07
05
1;
19
11
1#
1$
1%
0:
16
08
12
#610000
0!
0-
0.
#615000
1!
1-
1.
17
13
0;
09
0$
0%
14
18
02
#620000
0!
0-
0.
#625000
1!
1-
1.
15
03
19
1$
04
1:
06
#630000
0!
0-
0.
#635000
1!
1-
1.
07
05
1;
1%
0:
16
08
12
#640000
0!
0-
0.
#645000
1!
1-
1.
17
13
0;
09
0$
0%
14
18
02
#650000
0!
0-
0.
#655000
1!
1-
1.
15
03
19
1$
04
1:
06
#660000
0!
0-
0.
#665000
1!
1-
1.
07
05
1;
1%
0:
16
08
12
#670000
0!
0-
0.
#675000
1!
1-
1.
17
13
0;
09
0$
0%
14
18
02
#680000
0!
0-
0.
#685000
1!
1-
1.
15
03
19
1$
04
1:
06
#690000
0!
0-
0.
#695000
1!
1-
1.
07
05
1;
1%
0:
16
08
12
#700000
0!
0-
0.
#705000
1!
1-
1.
17
13
0;
09
0$
0%
14
18
02
#710000
0!
0-
0.
#715000
1!
1-
1.
15
03
19
1$
04
1:
06
#720000
0!
0-
0.
#725000
1!
1-
1.
07
05
1;
1%
0:
16
08
12
#730000
0!
0-
0.
#735000
1!
1-
1.
17
13
0;
09
0$
0%
14
18
02
#740000
0!
0-
0.
#745000
1!
1-
1.
15
03
19
1$
04
1:
06
#750000
0!
0-
0.
#755000
1!
1-
1.
07
05
1;
1%
0:
16
08
12
#760000
0!
0-
0.
#765000
1!
1-
1.
17
13
0;
09
0$
0%
14
18
02
#770000
0!
0-
0.
#775000
1!
1-
1.
15
03
19
1$
04
1:
06
#780000
0!
0-
0.
#785000
1!
1-
1.
07
05
1;
1%
0:
16
08
12
#790000
0!
0-
0.
#795000
1!
1-
1.
17
13
0;
09
0$
0%
14
18
02
#800000
0!
0-
0.
#805000
1!
1-
1.
15
03
19
1$
04
1:
06
#810000
0!
0-
0.
#815000
1!
1-
1.
07
05
1;
1%
0:
16
08
12
#820000
0!
0-
0.
#825000
1!
1-
1.
17
13
0;
09
0$
0%
14
18
02
#830000
0!
0-
0.
#835000
1!
1-
1.
15
03
19
1$
04
1:
06
#840000
0!
0-
0.
#845000
1!
1-
1.
07
05
1;
1%
0:
16
08
12
#850000
0!
0-
0.
#855000
1!
1-
1.
17
13
0;
09
0$
0%
14
18
02
#860000
0!
0-
0.
#865000
1!
1-
1.
15
03
19
1$
04
1:
06
#870000
0!
0-
0.
#875000
1!
1-
1.
07
05
1;
1%
0:
16
08
12
#880000
0!
0-
0.
#885000
1!
1-
1.
17
13
0;
09
0$
0%
14
18
02
#890000
0!
0-
0.
#895000
1!
1-
1.
15
03
19
1$
04
1:
06
#900000
0!
0-
0.
#905000
1!
1-
1.
07
05
1;
1%
0:
16
08
12
#910000
0!
0-
0.
#915000
1!
1-
1.
17
13
0;
09
0$
0%
14
18
02
#920000
0!
0-
0.
#925000
1!
1-
1.
15
03
19
1$
04
1:
06
#930000
0!
0-
0.
#935000
1!
1-
1.
07
05
1;
1%
0:
16
08
12
#940000
0!
0-
0.
#945000
1!
1-
1.
17
13
0;
09
0$
0%
14
18
02
#950000
0!
0-
0.
#955000
1!
1-
1.
15
03
19
1$
04
1:
06
#960000
0!
0-
0.
#965000
1!
1-
1.
07
05
1;
1%
0:
16
08
12
#970000
0!
0-
0.
#975000
1!
1-
1.
17
13
0;
09
0$
0%
14
18
02
#980000
0"
0!
0/
0-
0.
08
00
#985000
1!
1-
1.
01
0#
#990000
0!
0-
0.
#995000
1!
1-
1.
