Ass1_hank/simulation/qsim/ass1.msim.vcd
$comment
	File created using the following command:
		vcd file ass1.msim.vcd -direction
$end
$date
	Thu Jan 31 13:21:59 2019
$end
$version
	ModelSim Version 10.5b
$end
$timescale
	1ps
$end

$scope module ass1_vlg_vec_tst $end
$var reg 1 ! clk $end
$var reg 1 " left $end
$var reg 1 # reset $end
$var reg 1 $ right $end
$var wire 1 % LA $end
$var wire 1 & LB $end
$var wire 1 ' LC $end
$var wire 1 ( RA $end
$var wire 1 ) RB $end
$var wire 1 * RC $end

$scope module i1 $end
$var wire 1 + gnd $end
$var wire 1 , vcc $end
$var wire 1 - unknown $end
$var tri1 1 . devclrn $end
$var tri1 1 / devpor $end
$var tri1 1 0 devoe $end
$var wire 1 1 ~QUARTUS_CREATED_GND~I_combout $end
$var wire 1 2 clk~input_o $end
$var wire 1 3 clk~inputCLKENA0_outclk $end
$var wire 1 4 left_light|A~feeder_combout $end
$var wire 1 5 left~input_o $end
$var wire 1 6 right~input_o $end
$var wire 1 7 L~0_combout $end
$var wire 1 8 reset~input_o $end
$var wire 1 9 L~q $end
$var wire 1 : left_light|A~q $end
$var wire 1 ; left_light|light_state.10_44~combout $end
$var wire 1 < left_light|light_state.11_38~combout $end
$var wire 1 = left_light|light_state.01_50~combout $end
$var wire 1 > left_light|B~1_combout $end
$var wire 1 ? left_light|B~_emulated_q $end
$var wire 1 @ left_light|B~2_combout $end
$var wire 1 A left_light|C~_emulated_q $end
$var wire 1 B left_light|C~2_combout $end
$var wire 1 C right_light|A~feeder_combout $end
$var wire 1 D R~0_combout $end
$var wire 1 E R~q $end
$var wire 1 F right_light|A~q $end
$var wire 1 G right_light|light_state.10_44~combout $end
$var wire 1 H right_light|light_state.11_38~combout $end
$var wire 1 I right_light|light_state.01_50~combout $end
$var wire 1 J right_light|B~1_combout $end
$var wire 1 K right_light|B~_emulated_q $end
$var wire 1 L right_light|B~2_combout $end
$var wire 1 M right_light|C~_emulatedfeeder_combout $end
$var wire 1 N right_light|C~_emulated_q $end
$var wire 1 O right_light|C~2_combout $end
$upscope $end
$upscope $end
$enddefinitions $end
#0
$dumpvars
0!
0"
0#
0$
1%
0&
0'
1(
0)
0*
0+
1,
x-
1.
1/
10
01
02
03
14
05
06
07
08
09
0:
0;
0<
0=
0>
0?
0@
0A
0B
1C
0D
0E
0F
0G
0H
0I
0J
0K
0L
0M
0N
0O
$end
#10000
1!
12
13
1F
1:
0%
0(
#20000
0!
02
03
#30000
1!
12
13
#40000
0!
02
03
#50000
1!
12
13
#60000
0!
02
03
#70000
1!
12
13
#80000
0!
02
03
#90000
1!
12
13
#100000
0!
02
03
#110000
1!
12
13
#120000
1"
0!
15
02
03
17
#130000
1!
12
13
19
1>
1@
1&
0:
1%
#140000
0!
02
03
#150000
1!
12
13
#160000
0!
02
03
#170000
1!
12
13
#180000
0!
02
03
#190000
0"
1!
05
12
13
#200000
0!
02
03
#210000
1!
12
13
#220000
0!
02
03
#230000
1!
12
13
#240000
0!
02
03
#250000
1!
12
13
#260000
0!
02
03
#270000
1!
12
13
#280000
0!
02
03
#290000
1!
12
13
#300000
0!
02
03
#310000
1!
12
13
#320000
0!
02
03
#330000
1!
12
13
#340000
1$
0!
16
02
03
1D
07
#350000
1!
12
13
1E
09
1J
1L
1)
0F
1(
#360000
0!
02
03
#370000
1!
12
13
1?
1:
0%
0@
0&
#380000
0!
02
03
#390000
1!
12
13
#400000
0!
02
03
#410000
1!
12
13
#420000
0!
02
03
#430000
0$
1!
06
12
13
#440000
0!
02
03
#450000
1!
12
13
#460000
0!
02
03
#470000
1!
12
13
#480000
0!
02
03
#490000
1!
12
13
#500000
0!
02
03
#510000
1#
1!
18
12
13
0E
0D
#520000
0!
02
03
#530000
1!
12
13
1K
1F
0(
0L
0)
#540000
0!
02
03
#550000
1!
12
13
#560000
0!
02
03
#570000
1!
12
13
#580000
0!
02
03
#590000
1!
12
13
#600000
0#
0!
08
02
03
#610000
1!
12
13
#620000
0!
02
03
#630000
1!
12
13
#640000
0!
02
03
#650000
1!
12
13
#660000
0!
02
03
#670000
1!
12
13
#680000
0!
02
03
#690000
1!
12
13
#700000
0!
02
03
#710000
1!
12
13
#720000
0!
02
03
#730000
1"
1!
15
12
13
17
#740000
0!
02
03
#750000
1!
12
13
19
1@
1&
0:
0?
1%
#760000
0!
02
03
#770000
1!
12
13
#780000
0!
02
03
#790000
1!
12
13
#800000
0!
02
03
#810000
1!
12
13
#820000
0!
02
03
#830000
1!
12
13
#840000
0!
02
03
#850000
1!
12
13
#860000
0!
02
03
#870000
1!
12
13
#880000
0!
02
03
#890000
1!
12
13
#900000
0"
0!
05
02
03
#910000
1!
12
13
#920000
0!
02
03
#930000
1!
12
13
#940000
0!
02
03
#950000
1!
12
13
#960000
0!
02
03
#970000
1!
12
13
#980000
0!
02
03
#990000
1!
12
13
