Lab5_hank/tutorial/simulation/qsim/lab5.msim.vcd
$comment
	File created using the following command:
		vcd file lab5.msim.vcd -direction
$end
$date
	Wed Apr 03 22:03:58 2019
$end
$version
	ModelSim Version 10.5b
$end
$timescale
	1ps
$end

$scope module delay_counter_vlg_vec_tst $end
$var reg 1 ! clk $end
$var reg 8 " delay [7:0] $end
$var reg 1 # enable $end
$var reg 1 $ reset_n $end
$var reg 1 % start $end
$var wire 1 & done $end

$scope module i1 $end
$var wire 1 ' gnd $end
$var wire 1 ( vcc $end
$var wire 1 ) unknown $end
$var tri1 1 * devclrn $end
$var tri1 1 + devpor $end
$var tri1 1 , devoe $end
$var wire 1 - ~QUARTUS_CREATED_GND~I_combout $end
$var wire 1 . clk~input_o $end
$var wire 1 / clk~inputCLKENA0_outclk $end
$var wire 1 0 start~input_o $end
$var wire 1 1 Add0~17_sumout $end
$var wire 1 2 delay[0]~input_o $end
$var wire 1 3 reset_n~input_o $end
$var wire 1 4 msec10|Add0~25_sumout $end
$var wire 1 5 msec10|Add0~74 $end
$var wire 1 6 msec10|Add0~21_sumout $end
$var wire 1 7 msec10|Add0~22 $end
$var wire 1 8 msec10|Add0~17_sumout $end
$var wire 1 9 msec10|Add0~18 $end
$var wire 1 : msec10|Add0~13_sumout $end
$var wire 1 ; msec10|counter[4]~feeder_combout $end
$var wire 1 < msec10|Add0~14 $end
$var wire 1 = msec10|Add0~9_sumout $end
$var wire 1 > msec10|Add0~10 $end
$var wire 1 ? msec10|Add0~5_sumout $end
$var wire 1 @ msec10|counter[6]~feeder_combout $end
$var wire 1 A Equal0~0_combout $end
$var wire 1 B msec10|Add0~6 $end
$var wire 1 C msec10|Add0~1_sumout $end
$var wire 1 D msec10|Add0~2 $end
$var wire 1 E msec10|Add0~69_sumout $end
$var wire 1 F msec10|Add0~70 $end
$var wire 1 G msec10|Add0~65_sumout $end
$var wire 1 H msec10|counter[9]~feeder_combout $end
$var wire 1 I msec10|Add0~66 $end
$var wire 1 J msec10|Add0~61_sumout $end
$var wire 1 K msec10|counter[10]~feeder_combout $end
$var wire 1 L msec10|Add0~62 $end
$var wire 1 M msec10|Add0~57_sumout $end
$var wire 1 N msec10|Add0~58 $end
$var wire 1 O msec10|Add0~53_sumout $end
$var wire 1 P msec10|counter[12]~feeder_combout $end
$var wire 1 Q Equal0~2_combout $end
$var wire 1 R msec10|Add0~54 $end
$var wire 1 S msec10|Add0~49_sumout $end
$var wire 1 T msec10|Add0~50 $end
$var wire 1 U msec10|Add0~45_sumout $end
$var wire 1 V msec10|Add0~46 $end
$var wire 1 W msec10|Add0~41_sumout $end
$var wire 1 X msec10|Add0~42 $end
$var wire 1 Y msec10|Add0~37_sumout $end
$var wire 1 Z msec10|Add0~38 $end
$var wire 1 [ msec10|Add0~33_sumout $end
$var wire 1 \ msec10|Add0~34 $end
$var wire 1 ] msec10|Add0~29_sumout $end
$var wire 1 ^ Equal0~1_combout $end
$var wire 1 _ msec10|counter[18]~0_combout $end
$var wire 1 ` msec10|Add0~26 $end
$var wire 1 a msec10|Add0~73_sumout $end
$var wire 1 b enable~input_o $end
$var wire 1 c Equal0~3_combout $end
$var wire 1 d mydelay[0]~1_combout $end
$var wire 1 e Add0~18 $end
$var wire 1 f Add0~21_sumout $end
$var wire 1 g delay[1]~input_o $end
$var wire 1 h Add0~22 $end
$var wire 1 i Add0~25_sumout $end
$var wire 1 j delay[2]~input_o $end
$var wire 1 k Add0~26 $end
$var wire 1 l Add0~29_sumout $end
$var wire 1 m delay[3]~input_o $end
$var wire 1 n Add0~30 $end
$var wire 1 o Add0~1_sumout $end
$var wire 1 p delay[4]~input_o $end
$var wire 1 q Add0~2 $end
$var wire 1 r Add0~5_sumout $end
$var wire 1 s delay[5]~input_o $end
$var wire 1 t Add0~6 $end
$var wire 1 u Add0~9_sumout $end
$var wire 1 v delay[6]~input_o $end
$var wire 1 w Add0~10 $end
$var wire 1 x Add0~13_sumout $end
$var wire 1 y delay[7]~input_o $end
$var wire 1 z Equal1~0_combout $end
$var wire 1 { Equal1~1_combout $end
$var wire 1 | mydelay[0]~0_combout $end
$var wire 1 } done~0_combout $end
$var wire 1 ~ done~reg0_q $end
$var wire 1 !! msec10|counter [18] $end
$var wire 1 "! msec10|counter [17] $end
$var wire 1 #! msec10|counter [16] $end
$var wire 1 $! msec10|counter [15] $end
$var wire 1 %! msec10|counter [14] $end
$var wire 1 &! msec10|counter [13] $end
$var wire 1 '! msec10|counter [12] $end
$var wire 1 (! msec10|counter [11] $end
$var wire 1 )! msec10|counter [10] $end
$var wire 1 *! msec10|counter [9] $end
$var wire 1 +! msec10|counter [8] $end
$var wire 1 ,! msec10|counter [7] $end
$var wire 1 -! msec10|counter [6] $end
$var wire 1 .! msec10|counter [5] $end
$var wire 1 /! msec10|counter [4] $end
$var wire 1 0! msec10|counter [3] $end
$var wire 1 1! msec10|counter [2] $end
$var wire 1 2! msec10|counter [1] $end
$var wire 1 3! msec10|counter [0] $end
$var wire 1 4! mydelay [7] $end
$var wire 1 5! mydelay [6] $end
$var wire 1 6! mydelay [5] $end
$var wire 1 7! mydelay [4] $end
$var wire 1 8! mydelay [3] $end
$var wire 1 9! mydelay [2] $end
$var wire 1 :! mydelay [1] $end
$var wire 1 ;! mydelay [0] $end
$upscope $end
$upscope $end
$enddefinitions $end
#0
$dumpvars
0!
b111 "
0#
1$
0%
0&
0'
1(
x)
1*
1+
1,
0-
0.
0/
00
11
12
13
14
05
06
07
08
09
0:
0;
0<
0=
0>
0?
0@
1A
0B
0C
0D
0E
0F
0G
0H
0I
0J
0K
0L
0M
0N
0O
0P
1Q
0R
0S
0T
0U
0V
0W
0X
0Y
0Z
0[
0\
0]
1^
0_
0`
0a
0b
1c
0d
0e
1f
1g
0h
1i
1j
0k
1l
0m
0n
1o
0p
0q
1r
0s
0t
1u
0v
0w
1x
0y
1z
1{
0|
0}
0~
03!
02!
01!
00!
0/!
0.!
0-!
0,!
0+!
0*!
0)!
0(!
0'!
0&!
0%!
0$!
0#!
0"!
0!!
0;!
0:!
09!
08!
07!
06!
05!
04!
$end
#5000
1!
1.
1/
13!
0A
1`
04
0c
1a
#10000
0!
0.
0/
#15000
1!
1.
1/
12!
03!
1A
0`
14
15
0a
05
16
1c
1_
1a
06
#20000
1%
0!
10
0.
0/
1d
#25000
1!
1.
1/
19!
1:!
1;!
02!
0_
0z
1e
1h
1k
0a
01
0f
0i
1n
0{
1f
1i
0l
1q
0o
1t
0r
1w
0u
0x
#30000
0!
0.
0/
#35000
1!
1.
1/
13!
0A
1`
04
0c
1a
#40000
0!
0.
0/
#45000
1!
1.
1/
12!
03!
1A
0`
14
15
0a
05
16
1c
1_
1a
06
#50000
0%
0!
00
0.
0/
0d
#55000
1!
1.
1/
02!
0_
0a
#60000
0!
0.
0/
#65000
1!
1.
1/
13!
0A
1`
04
0c
1a
#70000
1#
0!
1b
0.
0/
1|
#75000
1!
1.
1/
12!
03!
1A
0`
14
0|
15
0a
05
16
1c
1_
1a
06
#80000
0!
0.
0/
#85000
1!
1.
1/
02!
1|
1d
0_
0a
#90000
0!
0.
0/
#95000
1!
1.
1/
0;!
13!
0A
1`
04
0e
11
0c
1a
0f
0d
#100000
0!
0.
0/
#105000
1!
1.
1/
12!
03!
1A
0`
14
0|
15
0a
05
16
1c
1_
1a
06
#110000
0!
0.
0/
#115000
1!
1.
1/
02!
1|
1d
0_
0a
#120000
0!
0.
0/
#125000
1!
1.
1/
0:!
1;!
13!
0A
1`
04
1e
0h
01
1f
1h
0c
1a
0f
0i
0d
1i
#130000
0!
0.
0/
#135000
1!
1.
1/
12!
03!
1A
0`
14
0|
15
0a
05
16
1c
1_
1a
06
#140000
0!
0.
0/
#145000
1!
1.
1/
02!
1|
1d
0_
0a
#150000
0!
0.
0/
#155000
1!
1.
1/
0;!
13!
0A
1`
04
0e
11
0h
0c
1a
1f
0d
0i
#160000
0!
0.
0/
#165000
1!
1.
1/
12!
03!
1A
0`
14
0|
15
0a
05
16
1c
1_
1a
06
#170000
0!
0.
0/
#175000
1!
1.
1/
02!
1|
1d
0_
0a
#180000
0!
0.
0/
#185000
1!
1.
1/
09!
1:!
1;!
13!
0A
1`
04
1e
1h
0k
01
0f
1i
1k
0n
0c
1a
1f
0i
1l
1n
0q
0d
0l
1o
1q
0t
0o
1r
1t
0w
0r
1u
1w
0u
1x
0x
#190000
0!
0.
0/
#195000
1!
1.
1/
12!
03!
1A
0`
14
0|
15
0a
05
16
1c
1_
1a
06
#200000
0!
0.
0/
#205000
1!
1.
1/
02!
1|
1d
0_
0a
#210000
0!
0.
0/
#215000
1!
1.
1/
0;!
13!
0A
1`
04
0e
11
0c
1a
0f
0d
#220000
0!
0.
0/
#225000
1!
1.
1/
12!
03!
1A
0`
14
0|
15
0a
05
16
1c
1_
1a
06
#230000
0!
0.
0/
#235000
1!
1.
1/
02!
1|
1d
0_
0a
#240000
0!
0.
0/
#245000
1!
1.
1/
0:!
1;!
13!
0A
1`
04
1e
0h
01
1f
1h
0k
0c
1a
0f
1i
1k
0n
0d
0i
1l
1n
0q
0l
1o
1q
0t
0o
1r
1t
0w
0r
1u
1w
0u
1x
0x
#250000
0#
0!
0b
0.
0/
0|
#255000
1!
1.
1/
12!
03!
1A
0`
14
15
0a
05
16
1c
1_
1a
06
#260000
0!
0.
0/
#265000
1!
1.
1/
02!
0_
0a
#270000
0!
0.
0/
#275000
1!
1.
1/
13!
0A
1`
04
0c
1a
#280000
0$
0!
03
0.
0/
1d
1_
1}
#285000
1!
1.
1/
0;!
03!
1~
1&
1A
0`
14
1z
0e
11
0h
1{
1c
0a
1f
0k
1i
0n
1l
0q
1o
0t
1r
0w
1u
1x
#290000
0!
0.
0/
#295000
1!
1.
1/
#300000
0!
0.
0/
#305000
1!
1.
1/
#310000
0!
0.
0/
#315000
1!
1.
1/
#320000
0!
0.
0/
#325000
1!
1.
1/
#330000
0!
0.
0/
#335000
1!
1.
1/
#340000
0!
0.
0/
#345000
1!
1.
1/
#350000
1$
0!
13
0.
0/
0d
0_
#355000
1!
1.
1/
13!
0A
1`
04
0c
1a
#360000
0!
0.
0/
#365000
1!
1.
1/
12!
03!
1A
0`
14
15
0a
05
16
1c
1_
1a
06
#370000
0!
0.
0/
#375000
1!
1.
1/
02!
0_
0a
#380000
0!
0.
0/
#385000
1!
1.
1/
13!
0A
1`
04
0c
1a
#390000
0!
0.
0/
#395000
1!
1.
1/
12!
03!
1A
0`
14
15
0a
05
16
1c
1_
1a
06
#400000
0!
0.
0/
#405000
1!
1.
1/
02!
0_
0a
#410000
1%
0!
10
0.
0/
1d
#415000
1!
1.
1/
19!
1:!
1;!
13!
0A
1`
04
0z
1e
1h
1k
01
0f
0i
1n
0{
0c
1a
1f
1i
0l
1q
0o
1t
0r
1w
0u
0x
#420000
0!
0.
0/
#425000
1!
1.
1/
12!
03!
1A
0`
14
15
0a
05
16
1c
1_
1a
06
#430000
0!
0.
0/
#435000
1!
1.
1/
02!
0_
0a
#440000
0!
0.
0/
#445000
1!
1.
1/
13!
0A
1`
04
0c
1a
#450000
0!
0.
0/
#455000
1!
1.
1/
12!
03!
1A
0`
14
15
0a
05
16
1c
1_
1a
06
#460000
0%
0!
00
0.
0/
0d
#465000
1!
1.
1/
02!
0_
0a
#470000
0!
0.
0/
#475000
1!
1.
1/
13!
0A
1`
04
0c
1a
#480000
1#
0!
1b
0.
0/
1|
#485000
1!
1.
1/
12!
03!
1A
0`
14
0|
15
0a
05
16
1c
1_
1a
06
#490000
0!
0.
0/
#495000
1!
1.
1/
02!
1|
1d
0_
0a
0}
#500000
0!
0.
0/
#505000
1!
1.
1/
0;!
13!
0~
0&
0A
1`
04
0e
11
0c
1a
0f
0d
#510000
0!
0.
0/
#515000
1!
1.
1/
12!
03!
1A
0`
14
0|
15
0a
05
16
1c
1_
1a
06
#520000
0!
0.
0/
#525000
1!
1.
1/
02!
1|
1d
0_
0a
#530000
0!
0.
0/
#535000
1!
1.
1/
0:!
1;!
13!
0A
1`
04
1e
0h
01
1f
1h
0c
1a
0f
0i
0d
1i
#540000
0!
0.
0/
#545000
1!
1.
1/
12!
03!
1A
0`
14
0|
15
0a
05
16
1c
1_
1a
06
#550000
0!
0.
0/
#555000
1!
1.
1/
02!
1|
1d
0_
0a
#560000
0!
0.
0/
#565000
1!
1.
1/
0;!
13!
0A
1`
04
0e
11
0h
0c
1a
1f
0d
0i
#570000
0!
0.
0/
#575000
1!
1.
1/
12!
03!
1A
0`
14
0|
15
0a
05
16
1c
1_
1a
06
#580000
0!
0.
0/
#585000
1!
1.
1/
02!
1|
1d
0_
0a
#590000
0!
0.
0/
#595000
1!
1.
1/
09!
1:!
1;!
13!
0A
1`
04
1e
1h
0k
01
0f
1i
1k
0n
0c
1a
1f
0i
1l
1n
0q
0d
0l
1o
1q
0t
0o
1r
1t
0w
0r
1u
1w
0u
1x
0x
#600000
0!
0.
0/
#605000
1!
1.
1/
12!
03!
1A
0`
14
0|
15
0a
05
16
1c
1_
1a
06
#610000
0!
0.
0/
#615000
1!
1.
1/
02!
1|
1d
0_
0a
#620000
0!
0.
0/
#625000
1!
1.
1/
0;!
13!
0A
1`
04
0e
11
0c
1a
0f
0d
#630000
0!
0.
0/
#635000
1!
1.
1/
12!
03!
1A
0`
14
0|
15
0a
05
16
1c
1_
1a
06
#640000
0!
0.
0/
#645000
1!
1.
1/
02!
1|
1d
0_
0a
#650000
0!
0.
0/
#655000
1!
1.
1/
0:!
1;!
13!
0A
1`
04
1e
0h
01
1f
1h
0k
0c
1a
0f
1i
1k
0n
0d
0i
1l
1n
0q
0l
1o
1q
0t
0o
1r
1t
0w
0r
1u
1w
0u
1x
0x
#660000
0!
0.
0/
#665000
1!
1.
1/
12!
03!
1A
0`
14
0|
15
0a
05
16
1c
1_
1a
06
#670000
0!
0.
0/
#675000
1!
1.
1/
02!
1|
1d
0_
0a
#680000
0!
0.
0/
#685000
1!
1.
1/
0;!
13!
0A
1`
04
1z
0e
11
0h
1{
0c
1a
1f
0k
0d
1i
0n
1l
0q
1o
0t
1r
0w
1u
1x
#690000
0!
0.
0/
#695000
1!
1.
1/
12!
03!
1A
0`
14
0|
15
0a
05
16
1c
1_
1a
06
#700000
0!
0.
0/
#705000
1!
1.
1/
02!
1|
0_
0a
1}
#710000
0!
0.
0/
#715000
1!
1.
1/
13!
1~
1&
0A
1`
04
0c
1a
#720000
0#
0!
0b
0.
0/
0|
#725000
1!
1.
1/
12!
03!
1A
0`
14
15
0a
05
16
1c
1_
1a
06
#730000
0!
0.
0/
#735000
1!
1.
1/
02!
0_
0a
#740000
0!
0.
0/
#745000
1!
1.
1/
13!
0A
1`
04
0c
1a
#750000
0!
0.
0/
#755000
1!
1.
1/
12!
03!
1A
0`
14
15
0a
05
16
1c
1_
1a
06
#760000
0!
0.
0/
#765000
1!
1.
1/
02!
0_
0a
#770000
0!
0.
0/
#775000
1!
1.
1/
13!
0A
1`
04
0c
1a
#780000
0!
0.
0/
#785000
1!
1.
1/
12!
03!
1A
0`
14
15
0a
05
16
1c
1_
1a
06
#790000
0!
0.
0/
#795000
1!
1.
1/
02!
0_
0a
#800000
0!
0.
0/
#805000
1!
1.
1/
13!
0A
1`
04
0c
1a
#810000
0!
0.
0/
#815000
1!
1.
1/
12!
03!
1A
0`
14
15
0a
05
16
1c
1_
1a
06
#820000
0!
0.
0/
#825000
1!
1.
1/
02!
0_
0a
#830000
0!
0.
0/
#835000
1!
1.
1/
13!
0A
1`
04
0c
1a
#840000
0!
0.
0/
#845000
1!
1.
1/
12!
03!
1A
0`
14
15
0a
05
16
1c
1_
1a
06
#850000
0!
0.
0/
#855000
1!
1.
1/
02!
0_
0a
#860000
0!
0.
0/
#865000
1!
1.
1/
13!
0A
1`
04
0c
1a
#870000
0!
0.
0/
#875000
1!
1.
1/
12!
03!
1A
0`
14
15
0a
05
16
1c
1_
1a
06
#880000
0!
0.
0/
#885000
1!
1.
1/
02!
0_
0a
#890000
0!
0.
0/
#895000
1!
1.
1/
13!
0A
1`
04
0c
1a
#900000
0!
0.
0/
#905000
1!
1.
1/
12!
03!
1A
0`
14
15
0a
05
16
1c
1_
1a
06
#910000
0!
0.
0/
#915000
1!
1.
1/
02!
0_
0a
#920000
0!
0.
0/
#925000
1!
1.
1/
13!
0A
1`
04
0c
1a
#930000
0!
0.
0/
#935000
1!
1.
1/
12!
03!
1A
0`
14
15
0a
05
16
1c
1_
1a
06
#940000
0!
0.
0/
#945000
1!
1.
1/
02!
0_
0a
#950000
0!
0.
0/
#955000
1!
1.
1/
13!
0A
1`
04
0c
1a
#960000
0!
0.
0/
#965000
1!
1.
1/
12!
03!
1A
0`
14
15
0a
05
16
1c
1_
1a
06
#970000
0!
0.
0/
#975000
1!
1.
1/
02!
0_
0a
#980000
0!
0.
0/
#985000
1!
1.
1/
13!
0A
1`
04
0c
1a
#990000
0!
0.
0/
#995000
1!
1.
1/
12!
03!
1A
0`
14
15
0a
05
16
1c
1_
1a
06
